<?xml version="1.0" encoding="UTF-8" standalone="no"?>
<svg version="1.1" baseProfile="full" xmlns="http://www.w3.org/2000/svg" xmlns:inkscape="http://www.inkscape.org/namespaces/inkscape" xmlns:xlink="http://www.w3.org/1999/xlink" width="640" height="640" class="white"><defs>
    <pattern id="grid" width="20" height="20" patternUnits="userSpaceOnUse">
      <rect width="20" height="20" fill="none" stroke="lightgrey" stroke-width="1"/>
    </pattern>
    <rect id="cursor" width="10" height="10" fill="forestgreen" opacity="0.2" transform="scale(2,2)"/>
    <rect id="others" width="10" height="10" fill="blue" opacity="0.2" transform="scale(2,2)"/>
    <rect id="empty" width="10" height="10" class="background" stroke="black" stroke-width="1" transform="scale(2,2)"/>
    <rect id="void" width="10" height="10" fill="none" stroke="black" stroke-width="1" transform="scale(2,2)"/>
    <g id="water" width="20">
      <rect width="20" height="20" class="background" stroke="black" stroke-width="2"/>
      <path id="waves" fill="none" stroke="black" stroke-width="1" d="M3,5 v-1 A1,1 0 0,1 5,4 A1,1 0 1,0 7,4 A1,1 0 0,1 9,4 A1,1 0 1,0 11,4 A1,1 0 0,1 13,4 A1,1 0 1,0 15,4 A1,1 0 0,1 17,4 v1"/>
      <use xlink:href="#waves" transform="translate(0,6)"/>
      <use xlink:href="#waves" transform="translate(0,12)"/>
    </g>
    <g id="wall" width="10" transform="scale(2,2)">
      <line x1="0" y1="0" x2="0" y2="10" stroke="black" stroke-width="3" stroke-linecap="round"/>
    </g>
    <g id="curtain" width="20">
      <path fill="none" stroke="black" stroke-width="1" d="M5,3 h-1 A1,1 0 0,0 4,5 A1,1 0 0,1 4,7 A1,1 0 0,0 4,9 A1,1 0 0,1 4,11 A1,1 0 0,0 4,13 A1,1 0 0,1 4,15 A1,1 0 0,0 4,17 h1"/>
    </g>
    <g id="portcullis" width="10" transform="scale(2,2)">
      <circle cx="2" cy="2" r="1" fill="black"/>
      <circle cx="2" cy="5" r="1" fill="black"/>
      <circle cx="2" cy="8" r="1" fill="black"/>
    </g>
    <g id="window" width="10" transform="scale(2,2)">
      <line x1="0" y1="0" x2="0" y2="2" stroke="black" stroke-width="3"/>
      <line x1="0" y1="8" x2="0" y2="10" stroke="black" stroke-width="3"/>
      <rect x="-0.75" y="2" width="1.5" height="6" class="background" stroke="black" stroke-width="0.5"/>
    </g>
    <g id="gap" width="10" transform="scale(2,2)">
      <line x1="0" y1="0" x2="0" y2="2" stroke="black" stroke-width="3" stroke-linecap="round"/>
      <line x1="0" y1="8" x2="0" y2="10" stroke="black" stroke-width="3" stroke-linecap="round"/>
      <circle cx="2.5" cy="2" r="0.5" fill="black"/>
      <circle cx="-3" cy="3" r="0.5" fill="black"/>
      <circle cx="3" cy="4" r="0.6" fill="black"/>
      <circle cx="1.5" cy="4.5" r="0.5" fill="black"/>
      <circle cx="-1.5" cy="5" r="0.5" fill="black"/>
      <circle cx="2" cy="6" r="0.5" fill="black"/>
      <circle cx="5" cy="6" r="0.5" fill="black"/>
      <circle cx="-2" cy="6.5" r="0.5" fill="black"/>
      <circle cx="3" cy="8" r="0.5" fill="black"/>
    </g>
    <g id="corner-pillar" width="10" transform="scale(2,2)">
      <circle cx="0" cy="0" r="2" fill="black"/>
    </g>
    <g id="arrow-slit" width="10" transform="scale(2,2)">
      <line x1="0" y1="0" x2="0" y2="10" stroke="black" stroke-width="3"/>
      <polygon points="-1.5,5 3,2 3,8" stroke="none" stroke-width="0" fill="white"/>
    </g>
    <g id="ledge" width="100" transform="scale(0.2,0.2)">
      <path fill="none" stroke="black" stroke-width="15" d="         M 0 0 C 0 20 9 27 11 47 C 10 80 0 80 0 100 M 6 27 L 38 21 M 11 49 L 46 50 M 8 71 L 32 86         "/>
    </g>
    <g id="ledge-r" width="100" transform="scale(0.2,0.2)">
      <path fill="none" stroke="black" stroke-width="15" d="         M 0 0 C 2 18 -8 34 6 48 C 19 70 -1 83 0 100 M -2 20 L -34 14 M 6 48 L -31 47 M -22 74 L 8 75         "/>
    </g>
    <g id="door" width="10" transform="scale(2,2)">
      <rect x="-1.5" y="2" width="3" height="6" class="background" stroke="black" stroke-width="1"/>
    </g>
    <g id="secret" width="10" transform="scale(2,2)">
      <path fill="none" stroke="black" stroke-width="1" d="M 2,3 C -2,1 -3,5 0,5 S 2,9 -2,7"/>
    </g>
    <g id="secret-dm-shown" width="10" transform="scale(2,2)">
      <path fill="none" stroke="black" stroke-width="1" d="M 2,3 C -2,1 -3,5 0,5 S 2,9 -2,7"/>
    </g>
    <g id="secret-p-hidden" width="10" transform="scale(2,2)">
      <line x1="0" y1="0" x2="0" y2="10" stroke="black" stroke-width="3" stroke-linecap="round"/>
    </g>
    <g id="concealed" width="10" transform="scale(2,2)">
      <path fill="none" stroke="black" stroke-width="1" d="M 2,3 C -3,1 -3,9 2,7"/>
    </g>
    <g id="concealed-dm-shown" width="10" transform="scale(2,2)">
      <path fill="none" stroke="black" stroke-width="1" d="M 2,3 C -3,1 -3,9 2,7"/>
    </g>
    <g id="concealed-p-hidden" width="10" transform="scale(2,2)">
      <line x1="0" y1="0" x2="0" y2="10" stroke="black" stroke-width="3" stroke-linecap="round"/>
    </g>
    <g id="gate" width="10" transform="scale(2,2)">
      <rect x="-2" y="4" width="4" height="12" class="background" stroke="black" stroke-width="1"/>
    </g>
    <g id="archway" width="10" transform="scale(2,2)">
      <path fill="black" stroke="black" stroke-width="1" d="M -1 0 A 1 1 0 0 0 1 0"/>
      <path fill="black" stroke="black" stroke-width="1" d="M -1 10 A 1 1 0 0 1 1 10"/>
      <line x1="0" y1="0" x2="0" y2="2.5" stroke="black" stroke-width="1.5"/>
      <line x1="-1.5" y1="2.5" x2="1.5" y2="2.5" stroke="black" stroke-width="1"/>
      <line x1="0" y1="7.5" x2="0" y2="10" stroke="black" stroke-width="1.5"/>
      <line x1="-1.5" y1="7.5" x2="1.5" y2="7.5" stroke="black" stroke-width="1"/>
    </g>
    <g id="one-way-door" width="10" transform="scale(2,2)">
      <rect x="0" y="2" width="2" height="6" class="background" stroke="black" stroke-width="1"/>
      <line x1="0" y1="5" x2="-3" y2="5" stroke="black" stroke-width="1"/>
      <line x1="-3" y1="5" x2="-1.5" y2="3" stroke="black" stroke-width="1"/>
      <line x1="-3" y1="5" x2="-1.5" y2="7" stroke="black" stroke-width="1"/>
    </g>
    <g id="one-way-door-dm-shown" width="10" transform="scale(2,2)">
      <rect x="0" y="2" width="2" height="6" class="background" stroke="black" stroke-width="1"/>
      <line x1="0" y1="5" x2="-3" y2="5" stroke="black" stroke-width="1"/>
      <line x1="-3" y1="5" x2="-1.5" y2="3" stroke="black" stroke-width="1"/>
      <line x1="-3" y1="5" x2="-1.5" y2="7" stroke="black" stroke-width="1"/>
    </g>
    <g id="one-way-door-p-hidden" width="10" transform="scale(2,2)">
      <rect x="0" y="2" width="2" height="6" class="background" stroke="black" stroke-width="1"/>
    </g>
    <g id="pillar" width="10" transform="scale(2,2)">
      <rect width="10" height="10" class="background" stroke="black" stroke-width="1"/>
      <circle cx="5" cy="5" r="2" fill="black"/>
    </g>
    <g id="altar" width="10" transform="scale(2,2)">
      <rect width="10" height="10" class="background" stroke="black" stroke-width="1"/>
      <rect x="2" y="3" width="6" height="4" fill="none" stroke="black" stroke-width="0.5"/>
      <circle cx="3.5" cy="5" r="0.5" fill="black"/>
      <circle cx="6.5" cy="5" r="0.5" fill="black"/>
    </g>
    <g id="dais" width="10" transform="scale(2,2)">
      <rect width="10" height="10" class="background" stroke="black" stroke-width="1"/>
      <rect x="2" y="2" width="6" height="6" fill="none" stroke="black" stroke-width="0.5"/>
      <rect x="3" y="3" width="4" height="4" fill="none" stroke="black" stroke-width="0.5"/>
      <rect x="4" y="4" width="2" height="2" fill="none" stroke="black" stroke-width="0.5"/>
    </g>
    <g id="dais-round" width="10" transform="scale(2,2)">
      <rect width="10" height="10" class="background" stroke="black" stroke-width="1"/>
      <circle cx="5" cy="5" r="3" fill="none" stroke="black" stroke-width="0.5"/>
      <circle cx="5" cy="5" r="2" fill="none" stroke="black" stroke-width="0.5"/>
      <circle cx="5" cy="5" r="1" fill="none" stroke="black" stroke-width="0.5"/>
    </g>
    <g id="rubble" width="10" transform="scale(2,2)">
      <rect width="10" height="10" class="background" stroke="black" stroke-width="1"/>
      <circle cx="7" cy="2" r="0.5" fill="black"/>
      <circle cx="2" cy="3" r="0.5" fill="black"/>
      <circle cx="4" cy="3" r="0.7" fill="black"/>
      <circle cx="8" cy="4" r="0.6" fill="black"/>
      <circle cx="6" cy="4" r="0.5" fill="black"/>
      <circle cx="3" cy="5" r="0.7" fill="black"/>
      <circle cx="5" cy="6" r="0.5" fill="black"/>
      <circle cx="7" cy="6" r="0.7" fill="black"/>
      <circle cx="4" cy="7" r="0.5" fill="black"/>
      <circle cx="8" cy="8" r="0.5" fill="black"/>
    </g>
    <g id="statue" width="10" transform="scale(2,2)">
      <rect width="10" height="10" class="background" stroke="black" stroke-width="1"/>
      <circle cx="5" cy="5" r="3.5" fill="none" stroke="black" stroke-width="0.5"/>
      <path fill="black" d="M 2,4 H 8 L 3,7.5 5,2 7,7.5 Z"/>
    </g>
    <g id="well" width="10" transform="scale(2,2)">
      <rect width="10" height="10" class="background" stroke="black" stroke-width="1"/>
      <circle cx="5" cy="5" r="2.25" fill="none" stroke="black" stroke-width="0.5"/>
      <circle cx="5" cy="5" r="1" fill="black"/>
    </g>
    <g id="fountain" width="10" transform="scale(2,2)">
      <rect width="10" height="10" class="background" stroke="black" stroke-width="1"/>
      <circle cx="5" cy="5" r="2.5" fill="none" stroke="black" stroke-width="0.5"/>
      <circle cx="5" cy="4" r="1.5" fill="none" stroke="black" stroke-width="0.5"/>
    </g>
    <g id="trap" width="10" transform="scale(2,2)">
      <rect width="10" height="10" class="background" stroke="black" stroke-width="1"/>
      <rect x="2" y="2" width="6" height="6" fill="none" stroke="black" stroke-width="1"/>
      <line x1="2" y1="2" x2="8" y2="8" stroke="black" stroke-width="0.8"/>
      <line x1="2" y1="8" x2="8" y2="2" stroke="black" stroke-width="0.8"/>
    </g>
    <g id="trap-dm-shown" width="10" transform="scale(2,2)">
      <rect width="10" height="10" class="background" stroke="black" stroke-width="1"/>
      <rect x="2" y="2" width="6" height="6" fill="none" stroke="black" stroke-width="1"/>
      <line x1="2" y1="2" x2="8" y2="8" stroke="black" stroke-width="0.8"/>
      <line x1="2" y1="8" x2="8" y2="2" stroke="black" stroke-width="0.8"/>
    </g>
    <g id="trap-p-hidden" width="10" transform="scale(2,2)">
      <rect width="10" height="10" class="background" stroke="black" stroke-width="1"/>
    </g>
    <g id="pit" width="10" transform="scale(2,2)">
      <rect width="10" height="10" class="background" stroke="black" stroke-width="1"/>
      <rect x="2" y="2" width="6" height="6" fill="none" stroke="black" stroke-width="1"/>
      <line x1="2" y1="2" x2="8" y2="8" stroke="black" stroke-width="0.5"/>
      <line x1="2" y1="8" x2="8" y2="2" stroke="black" stroke-width="0.5"/>
      <rect x="3.5" y="3.5" width="3" height="3" fill="black"/>
    </g>
    <g id="trap-door-ceiling" width="10" class="labels" transform="scale(2,2)">
      <rect width="10" height="10" class="background" stroke="black" stroke-width="1"/>
      <circle cx="5" cy="5" r="3.5" fill="none" stroke="black" stroke-width="0.5"/>
      <text x="8.3" y="12" fill="black" transform="scale(0.6,0.6)">C</text>
    </g>
    <g id="trap-door-floor" width="10" class="labels" transform="scale(2,2)">
      <rect width="10" height="10" class="background" stroke="black" stroke-width="1"/>
      <circle cx="5" cy="5" r="3.5" fill="none" stroke="black" stroke-width="0.5"/>
      <text x="8.3" y="12" fill="black" transform="scale(0.6,0.6)">F</text>
    </g>
    <g id="trap-door-secret" width="10" class="labels" transform="scale(2,2)">
      <rect width="10" height="10" class="background" stroke="black" stroke-width="1"/>
      <circle cx="5" cy="5" r="3.5" fill="none" stroke="black" stroke-width="0.5"/>
      <text x="8.3" y="12" fill="black" transform="scale(0.6,0.6)">S</text>
    </g>
    <g id="trap-door-secret-dm-shown" width="10" class="labels" transform="scale(2,2)">
      <rect width="10" height="10" class="background" stroke="black" stroke-width="1"/>
      <circle cx="5" cy="5" r="3.5" fill="none" stroke="black" stroke-width="0.5"/>
      <text x="8.3" y="12" fill="black" transform="scale(0.6,0.6)">S</text>
    </g>
    <g id="trap-door-secret-p-hidden" width="10" transform="scale(2,2)">
      <rect width="10" height="10" class="background" stroke="black" stroke-width="1"/>
    </g>
    <g id="generic-trap" width="10" class="labels" transform="scale(2,2)">
      <rect width="10" height="10" class="background" stroke="black" stroke-width="1"/>
      <text x="8.3" y="12" fill="black" transform="scale(0.6,0.6)">T</text>
    </g>
    <g id="generic-trap-dm-shown" width="10" class="labels" transform="scale(2,2)">
      <rect width="10" height="10" class="background" stroke="black" stroke-width="1"/>
      <text x="8.3" y="12" fill="black" transform="scale(0.6,0.6)">T</text>
    </g>
    <g id="generic-trap-p-hidden" width="10" transform="scale(2,2)">
      <rect width="10" height="10" class="background" stroke="black" stroke-width="1"/>
    </g>
    <g id="chest" width="10" transform="scale(2,2)">
      <rect width="10" height="10" class="background" stroke="black" stroke-width="1"/>
      <rect x="2" y="3" width="6" height="4" fill="none" stroke="black" stroke-width="0.5"/>
      <line x1="3.5" y1="2" x2="3.5" y2="8" stroke="black" stroke-width="0.5"/>
      <line x1="6.5" y1="2" x2="6.5" y2="8" stroke="black" stroke-width="0.5"/>
    </g>
    <g id="bed" width="10" transform="scale(2,2)">
      <rect width="10" height="10" class="background" stroke="black" stroke-width="1"/>
      <rect x="2" y="3" width="6" height="4" fill="none" stroke="black" stroke-width="0.5"/>
      <line x1="4" y1="3" x2="4" y2="7" stroke="black" stroke-width="0.5"/>
    </g>
    <g id="table" width="10" transform="scale(2,2)">
      <rect width="10" height="10" class="background" stroke="black" stroke-width="1"/>
      <rect x="2" y="3" width="6" height="4" fill="none" stroke="black" stroke-width="0.5"/>
      <circle cx="3.5" cy="4" r="0.5" fill="black"/>
      <circle cx="3.5" cy="6" r="0.5" fill="black"/>
      <circle cx="6.5" cy="4" r="0.5" fill="black"/>
      <circle cx="6.5" cy="6" r="0.5" fill="black"/>
    </g>
    <g id="chair" width="10" transform="scale(2,2)">
      <rect width="10" height="10" class="background" stroke="black" stroke-width="1"/>
      <rect x="2.5" y="3.5" width="5" height="3.5" fill="none" stroke="black" stroke-width="0.5"/>
      <rect x="3.5" y="3.5" width="3" height="2.5" fill="none" stroke="black" stroke-width="0.5"/>
    </g>
    <g id="screen" width="10" transform="scale(2,2)">
      <rect width="10" height="10" class="background" stroke="black" stroke-width="1"/>
      <rect x="2" y="3" width="6" height="4" fill="none" stroke="black" stroke-width="0.5"/>
    </g>
    <g id="diagonal" width="10" transform="scale(2,2)">
      <path class="background" stroke="black" stroke-width="1" stroke-linejoin="bevel" d="M0,10 H10 V0 Z"/>
    </g>
    <g id="walled-diagonal" width="10" transform="scale(2,2)">
      <path class="background" stroke="black" stroke-width="1" stroke-linejoin="bevel" d="M0,10 H10 V0 Z"/>
      <line x1="0" y1="10" x2="10" y2="0" stroke="black" stroke-width="3" stroke-linecap="round"/>
    </g>
    <g id="diagonal-wall" width="10" transform="scale(2,2)">
      <rect width="10" height="10" class="background" stroke="black" stroke-width="1"/>
      <line x1="0" y1="10" x2="10" y2="0" stroke="black" stroke-width="3" stroke-linecap="round"/>
    </g>
    <g id="diagonal-line" width="10" transform="scale(2,2)">
      <line x1="0" y1="10" x2="10" y2="0" stroke="black" stroke-width="3" stroke-linecap="round"/>
    </g>
    <g id="diagonal-door" width="10" transform="scale(2,2)">
      <rect width="10" height="10" class="background" stroke="black" stroke-width="1"/>
      <line x1="0" y1="10" x2="10" y2="0" stroke="black" stroke-width="3" stroke-linecap="round"/>
      <rect x="-1.5" y="2" width="3" height="6" class="background" stroke="black" stroke-width="1" transform="translate(10,3) rotate(45) translate(-2.05,0)"/>
    </g>
    <g id="diagonal-ledge" width="100" transform="scale(0.2,0.2)">
      <rect width="100" height="100" class="background" stroke="black" stroke-width="10"/>
      <path fill="none" stroke="black" stroke-width="15" d="         M 100 0 C 93 8 88 30 73 45 C 53 56 79 81 1 100 M 43 33 L 65 52 M 43 84 L 22 65 M 85 29 L 64 12         "/>
    </g>
    <g id="arc" width="10" transform="scale(2,2)">
      <path class="background" d="M0,10 A10,10 0 0,1 10,0 v10 Z" stroke="black" stroke-width="1"/>
    </g>
    <g id="arc2" class="center" width="10" transform="scale(2,2)">
      <path class="background" d="M0,20 A20,20 0 0,1 20,0 v20 Z" stroke="black" stroke-width="1"/>
      <line x1="2.7" y1="10" x2="20" y2="10" stroke="black" stroke-width="1"/>
      <line x1="10" y1="2.7" x2="10" y2="20" stroke="black" stroke-width="1"/>
      <circle class="dot" cx="5" cy="5" r="1" fill="red" opacity="0"/>
    </g>
    <g id="arc3" class="center" width="10" transform="scale(2,2)">
      <path class="background" d="M0,30 A30,30 0 0,1 30,0 v30 Z" stroke="black" stroke-width="1"/>
      <line x1="7.6" y1="10" x2="30" y2="10" stroke="black" stroke-width="1"/>
      <line x1="1.7" y1="20" x2="30" y2="20" stroke="black" stroke-width="1"/>
      <line x1="10" y1="7.6" x2="10" y2="30" stroke="black" stroke-width="1"/>
      <line x1="20" y1="1.7" x2="20" y2="30" stroke="black" stroke-width="1"/>
      <circle class="dot" cx="5" cy="5" r="1" fill="red" opacity="0"/>
    </g>
    <g id="arc4" class="center" width="10" transform="scale(2,2)">
      <path class="background" d="M0,40 A40,40 0 0,1 40,0 v40 Z" stroke="black" stroke-width="1"/>
      <line x1="13.5" y1="10" x2="40" y2="10" stroke="black" stroke-width="1"/>
      <line x1="5" y1="20" x2="40" y2="20" stroke="black" stroke-width="1"/>
      <line x1="1.7" y1="30" x2="40" y2="30" stroke="black" stroke-width="1"/>
      <line x1="10" y1="13.5" x2="10" y2="40" stroke="black" stroke-width="1"/>
      <line x1="20" y1="5" x2="20" y2="40" stroke="black" stroke-width="1"/>
      <line x1="30" y1="1.7" x2="30" y2="40" stroke="black" stroke-width="1"/>
      <circle class="dot" cx="5" cy="5" r="1" fill="red" opacity="0"/>
    </g>
    <g id="arcw" width="10" transform="scale(2,2)">
      <path class="background" d="M0,10 A10,10 0 0,1 10,0 v10 z" stroke="black" stroke-width="1"/>
      <path class="background" d="M0,10 A10,10 0 0,1 10,0" stroke="black" stroke-width="3" stroke-linecap="round"/>
    </g>
    <g id="arcw2" class="center" width="10" transform="scale(2,2)">
      <path class="background" d="M0,20 A20,20 0 0,1 20,0 v20 Z" stroke="black" stroke-width="1"/>
      <path class="background" d="M0,20 A20,20 0 0,1 20,0" stroke="black" stroke-width="3" stroke-linecap="round"/>
      <line x1="2.7" y1="10" x2="20" y2="10" stroke="black" stroke-width="1"/>
      <line x1="10" y1="2.7" x2="10" y2="20" stroke="black" stroke-width="1"/>
      <circle class="dot" cx="5" cy="5" r="1" fill="red" opacity="0"/>
    </g>
    <g id="arcw3" class="center" width="10" transform="scale(2,2)">
      <path class="background" d="M0,30 A30,30 0 0,1 30,0 v30 Z" stroke="black" stroke-width="1"/>
      <path class="background" d="M0,30 A30,30 0 0,1 30,0" stroke="black" stroke-width="3" stroke-linecap="round"/>
      <line x1="7.6" y1="10" x2="30" y2="10" stroke="black" stroke-width="1"/>
      <line x1="1.7" y1="20" x2="30" y2="20" stroke="black" stroke-width="1"/>
      <line x1="10" y1="7.6" x2="10" y2="30" stroke="black" stroke-width="1"/>
      <line x1="20" y1="1.7" x2="20" y2="30" stroke="black" stroke-width="1"/>
      <circle class="dot" cx="5" cy="5" r="1" fill="red" opacity="0"/>
    </g>
    <g id="arcw4" class="center" width="10" transform="scale(2,2)">
      <path class="background" d="M0,40 A40,40 0 0,1 40,0 v40 Z" stroke="black" stroke-width="1"/>
      <path class="background" d="M0,40 A40,40 0 0,1 40,0" stroke="black" stroke-width="3" stroke-linecap="round"/>
      <line x1="13.5" y1="10" x2="40" y2="10" stroke="black" stroke-width="1"/>
      <line x1="5" y1="20" x2="40" y2="20" stroke="black" stroke-width="1"/>
      <line x1="1.7" y1="30" x2="40" y2="30" stroke="black" stroke-width="1"/>
      <line x1="10" y1="13.5" x2="10" y2="40" stroke="black" stroke-width="1"/>
      <line x1="20" y1="5" x2="20" y2="40" stroke="black" stroke-width="1"/>
      <line x1="30" y1="1.7" x2="30" y2="40" stroke="black" stroke-width="1"/>
      <circle class="dot" cx="5" cy="5" r="1" fill="red" opacity="0"/>
    </g>
    <g id="stair" width="10" transform="scale(2,2)">
      <rect width="10" height="20" class="background" stroke="black" stroke-width="1"/>
      <line x1="0" y1="3" x2="10" y2="3" stroke="black" stroke-width="0.8"/>
      <line x1="1" y1="6" x2="9" y2="6" stroke="black" stroke-width="0.8"/>
      <line x1="2" y1="9" x2="8" y2="9" stroke="black" stroke-width="0.8"/>
      <line x1="3" y1="12" x2="7" y2="12" stroke="black" stroke-width="0.8"/>
      <line x1="4" y1="15" x2="6" y2="15" stroke="black" stroke-width="0.8"/>
    </g>
    <g id="stair-small" width="10" transform="scale(2,2)">
      <rect width="10" height="10" class="background" stroke="black" stroke-width="1"/>
      <line x1="1" y1="2" x2="9" y2="2" stroke="black" stroke-width="0.8"/>
      <line x1="2" y1="4" x2="8" y2="4" stroke="black" stroke-width="0.8"/>
      <line x1="3" y1="6" x2="7" y2="6" stroke="black" stroke-width="0.8"/>
      <line x1="4" y1="8" x2="6" y2="8" stroke="black" stroke-width="0.8"/>
    </g>
    <g id="stair-big" width="10" transform="scale(2,2)">
      <rect width="20" height="20" class="background" stroke="black" stroke-width="1"/>
      <line x1="1" y1="3" x2="19" y2="3" stroke="black" stroke-width="0.8"/>
      <line x1="2" y1="6" x2="18" y2="6" stroke="black" stroke-width="0.8"/>
      <line x1="3" y1="9" x2="17" y2="9" stroke="black" stroke-width="0.8"/>
      <line x1="4" y1="12" x2="16" y2="12" stroke="black" stroke-width="0.8"/>
      <line x1="5" y1="15" x2="15" y2="15" stroke="black" stroke-width="0.8"/>
      <line x1="6" y1="18" x2="14" y2="18" stroke="black" stroke-width="0.8"/>
    </g>
    <g id="stair-big-spiral" width="50" transform="scale(0.4,0.4)">
      <rect width="100" height="100" class="background" stroke="black" stroke-width="5"/>
      <circle cx="50" cy="50" r="40" fill="none" stroke="black" stroke-width="5"/>
      <line x1="0" y1="50" x2="99" y2="50" stroke="black" stroke-width="5"/>
      <line x1="50" y1="0" x2="50" y2="100" stroke="black" stroke-width="5"/>
      <line x1="15" y1="30" x2="85" y2="70" stroke="black" stroke-width="5"/>
      <line x1="15" y1="70" x2="85" y2="30" stroke="black" stroke-width="5"/>
      <line x1="30" y1="15" x2="70" y2="85" stroke="black" stroke-width="5"/>
      <line x1="30" y1="85" x2="70" y2="15" stroke="black" stroke-width="5"/>
      <circle cx="50" cy="50" r="10" class="background" stroke="black" stroke-width="5"/>
    </g>
    <g id="stair-spiral" width="100" transform="scale(0.2,0.2)">
      <rect width="100" height="100" class="background" stroke="black" stroke-width="10"/>
      <circle cx="50" cy="50" r="40" fill="none" stroke="black" stroke-width="7"/>
      <line x1="10" y1="50" x2="90" y2="50" stroke="black" stroke-width="7"/>
      <line x1="50" y1="10" x2="50" y2="90" stroke="black" stroke-width="7"/>
      <line x1="22" y1="22" x2="78" y2="78" stroke="black" stroke-width="7"/>
      <line x1="22" y1="78" x2="78" y2="22" stroke="black" stroke-width="7"/>
      <circle cx="50" cy="50" r="10" class="background" stroke="black" stroke-width="7"/>
    </g>
    <g id="ladder" width="100" transform="scale(0.2,0.2)">
      <rect width="100" height="100" class="background" stroke="black" stroke-width="10"/>
      <circle cx="30" cy="25" r="12" fill="black"/>
      <line x1="30" y1="25" x2="30" y2="75" stroke="black" stroke-width="10"/>
      <circle cx="30" cy="75" r="12" fill="black"/>
    </g>
    <g id="stair-spiral-down" width="100" class="labels" transform="scale(0.2,0.2)">
      <rect width="100" height="100" class="background" stroke="black" stroke-width="10"/>
      <circle cx="50" cy="50" r="40" fill="none" stroke="black" stroke-width="7"/>
      <line x1="10" y1="50" x2="90" y2="50" stroke="black" stroke-width="7"/>
      <line x1="50" y1="10" x2="50" y2="90" stroke="black" stroke-width="7"/>
      <line x1="22" y1="22" x2="78" y2="78" stroke="black" stroke-width="7"/>
      <line x1="22" y1="78" x2="78" y2="22" stroke="black" stroke-width="7"/>
      <circle cx="50" cy="50" r="10" class="background" stroke="black" stroke-width="7"/>
      <rect x="2" y="2" width="46" height="46" stroke="none" stroke-width="0" fill="white"/>
      <text x="6" y="10" fill="black" transform="scale(4,4)">D</text>
    </g>
    <g id="stair-spiral-up" width="100" class="labels" transform="scale(0.2,0.2)">
      <rect width="100" height="100" class="background" stroke="black" stroke-width="10"/>
      <circle cx="50" cy="50" r="40" fill="none" stroke="black" stroke-width="7"/>
      <line x1="10" y1="50" x2="90" y2="50" stroke="black" stroke-width="7"/>
      <line x1="50" y1="10" x2="50" y2="90" stroke="black" stroke-width="7"/>
      <line x1="22" y1="22" x2="78" y2="78" stroke="black" stroke-width="7"/>
      <line x1="22" y1="78" x2="78" y2="22" stroke="black" stroke-width="7"/>
      <circle cx="50" cy="50" r="10" class="background" stroke="black" stroke-width="7"/>
      <rect x="2" y="2" width="46" height="46" stroke="none" stroke-width="0" fill="white"/>
      <text x="6" y="10" fill="black" transform="scale(4,4)">U</text>
    </g>
    <g id="stair-big-spiral-down" width="50" class="labels" transform="scale(0.4,0.4)">
      <rect width="100" height="100" class="background" stroke="black" stroke-width="5"/>
      <circle cx="50" cy="50" r="40" fill="none" stroke="black" stroke-width="5"/>
      <line x1="0" y1="50" x2="99" y2="50" stroke="black" stroke-width="5"/>
      <line x1="50" y1="0" x2="50" y2="100" stroke="black" stroke-width="5"/>
      <line x1="15" y1="30" x2="85" y2="70" stroke="black" stroke-width="5"/>
      <line x1="15" y1="70" x2="85" y2="30" stroke="black" stroke-width="5"/>
      <line x1="30" y1="15" x2="70" y2="85" stroke="black" stroke-width="5"/>
      <line x1="30" y1="85" x2="70" y2="15" stroke="black" stroke-width="5"/>
      <circle cx="50" cy="50" r="10" class="background" stroke="black" stroke-width="5"/>
      <rect x="2" y="2" width="46" height="46" stroke="none" stroke-width="0" fill="white"/>
      <text x="6" y="10" fill="black" transform="scale(4,4)">D</text>
    </g>
    <g id="stair-big-spiral-up" width="50" class="labels" transform="scale(0.4,0.4)">
      <rect width="100" height="100" class="background" stroke="black" stroke-width="5"/>
      <circle cx="50" cy="50" r="40" fill="none" stroke="black" stroke-width="5"/>
      <line x1="0" y1="50" x2="99" y2="50" stroke="black" stroke-width="5"/>
      <line x1="50" y1="0" x2="50" y2="100" stroke="black" stroke-width="5"/>
      <line x1="15" y1="30" x2="85" y2="70" stroke="black" stroke-width="5"/>
      <line x1="15" y1="70" x2="85" y2="30" stroke="black" stroke-width="5"/>
      <line x1="30" y1="15" x2="70" y2="85" stroke="black" stroke-width="5"/>
      <line x1="30" y1="85" x2="70" y2="15" stroke="black" stroke-width="5"/>
      <circle cx="50" cy="50" r="10" class="background" stroke="black" stroke-width="5"/>
      <rect x="2" y="2" width="46" height="46" stroke="none" stroke-width="0" fill="white"/>
      <text x="6" y="10" fill="black" transform="scale(4,4)">U</text>
    </g>
  <g id="rock1" width="10" transform="scale(2,2)">
    <path width="10" class="background" d="M0,10 v-1 L1,8 L0,6 v-1 L1,4 v-2 L0,1 L0,0 H10 V10 Z" stroke-miterlimit="1" stroke="black" stroke-width="1"/>
    <path width="10" class="rockWall" d="M 0 10 v -1 L 1 8 L 0 6 v -1 L 1 4 v -2 L 0 1 L 0 0" stroke-miterlimit="1" stroke="black" stroke-width="3" style="display: none;"/>
  </g>
  <g id="rock2a" width="10" transform="scale(2,2)">
    <path width="10" class="background" d="M0,10 v-1 L1,8 L1,7 L2,5 L1,4 L2,2 L4,1 L5,2 L7,2 L10,0 V10 Z" stroke-miterlimit="1" stroke-linecap="round" stroke="black" stroke-width="1"/>
    <path width="10" class="rockWall" d="M 0 10 v -1 L 1 8 L 1 7 L 2 5 L 1 4 L 2 2 L 4 1 L 5 2 L 7 2 L 10 0" stroke-miterlimit="1" stroke-linecap="round" stroke="black" stroke-width="3" style="display: none;"/>
  </g>
  <g id="rock2b" width="10" transform="scale(2,2)">
    <path width="10" class="background" d="M0,10 v-1 L1,8 L1,7 L2,5 v-1 L3,3 h1 L5,2 L7,2 L10,0 V10 Z" stroke-miterlimit="1" stroke-linecap="round" stroke="black" stroke-width="1"/>
    <path width="10" class="rockWall" d="M 0 10 v -1 L 1 8 L 1 7 L 2 5 v -1 L 3 3 h 1 L 5 2 L 7 2 L 10 0" stroke-miterlimit="1" stroke-linecap="round" stroke="black" stroke-width="3" style="display: none;"/>
  </g>
  <g id="rock3" width="10" transform="scale(2,2)">
    <path width="10" class="background" d="M0,10 v-1 L1,7 v-1 L2,5 v-1 L2,2 L4,1 L5,2 L7,2 L9,1 L10,3 L8,6 L8,7 L10,10 Z" stroke-miterlimit="1" stroke-linecap="round" stroke="black" stroke-width="1"/>
    <path width="10" class="rockWall" d="M0,10 v-1 L1,7 v-1 L2,5 v-1 L2,2 L4,1 L5,2 L7,2 L9,1 L10,3 L8,6 L8,7 L10,10" stroke-miterlimit="1" stroke-linecap="round" stroke="black" stroke-width="3" style="display: none;"/>
  </g>
  <g id="rock4" width="10" transform="scale(2,2)">
    <path width="10" class="background" d="M3,3 L5,2 L7,3 L8,5 L7,7 v1 h-1 L4,9 L2,7 L2,5 Z" stroke-linecap="round" stroke="black" stroke-width="1"/>
    <path width="10" class="rockWall" d="M3,3 L5,2 L7,3 L8,5 L7,7 v1 h-1 L4,9 L2,7 L2,5 Z" stroke-linecap="round" stroke="black" stroke-width="3" style="display: none;"/>
  </g>
  <g id="rockd" width="10" transform="scale(2,2)">
    <path width="10" class="background" d="M0,10 v-1 L1,8 L0,6 v-1 L1,4 v-2 L0,1 L0,0 H10 v1 L9,2 v1 L8,6 L9,7 v1 L10,10 Z" stroke-miterlimit="1" stroke="black" stroke-width="1"/>
    <path width="10" class="rockWall" d="M 0 10 v -1 L 1 8 L 0 6 v -1 L 1 4 v -2 L 0 1 L 0 0 M 10 0 v 1 L 9 2 v 1 L 8 6 L 9 7 v 1 L 10 10" stroke-miterlimit="1" stroke="black" stroke-width="3" style="display: none;"/>
  </g>
  </defs><style><![CDATA[
svg { overflow: visible }
text { font: 14px 'Courier New', Courier, monospace }
textarea { font: 10px 'Courier New', Courier, monospace }
p { margin: 0 0 10px 0; padding: 0; }
.line {  }
.line svg { display: inline; vertical-align: middle }
.labels text, #levels text, #label { text-anchor: middle; font: 10px 'Arial Narrow', sans-serif; font-weight: bold; }
.labels text.left, #levels text.left { text-anchor: start; font-size: 14px; }
a { color: black; text-decoration: none; }
.blue { fill: blue; }
/* http://paletton.com/palette.php?uid=30f0u0kk8qbaaFtfwuQo4mgswhv */
.background { fill: inherit; }
use.red { fill: #F6A17F; }
use.green { fill: #A1DB71; }
use.blue { fill: #88A9C2; }
use.colorQ { fill: #A9A9A9; }
use.colorE { fill: #FF5733; }
use.colorA { fill: #FFD700; }
use.colorS { fill: #FF8C00; }
use.colorS { fill: #A0522D; }
use.colorD { fill: #1E90FF; }
use.colorF { fill: #008000; }
use { fill: white; }
.key { color: forestgreen; fill: forestgreen; font-weight: bold; }
.invisible { display: none; }
.center:hover .dot { opacity: 1; }
#ui { -webkit-tap-highlight-color: rgba(0,0,0,0); }
#background { transition: fill 500ms linear; }
#help { transition: fill 500ms linear; }
text { fill: black; }

#help { fill: #fffff0; } /* ivory and light grey */
#background { fill: #d3d3d3; }

svg.black #background { fill: black; }

svg.white #background { fill: white; }

svg.grid  #background { fill: url(#grid); }

/* http://www.color-hex.com/color/01b0f1
   https://de.wikipedia.org/wiki/Non-Photo_Blue */
svg.blue * { stroke: #005878; }
svg.blue *[fill=black],
svg.blue a,
svg.blue text,
svg.blue tspan { stroke: none; fill: #005878; }
svg.blue .key { fill: white; }
svg.blue .blue { text-decoration: underline; fill: inherit; }
svg.blue #background,
svg.blue #help { fill: #01b0f1; }

.menu div {
    background: white;
    padding: 10px;
    overflow: scroll;
    font: 14px 'Courier New', Courier, monospace
}
.menu span { display: inline-block; width: 32ex }
.menu a { color: blue }

/* thick rock walls to be displayed only when autoWaller is on*/
.rockWall { display:none }
  ]]></style><g id="background" inkscape:groupmode="layer" inkscape:label="Background">
    <rect x="20" y="20" width="600" height="600" stroke="black" stroke-width="1"/>
  </g><g id="levels" inkscape:groupmode="layer" inkscape:label="Levels"><g id="level2" inkscape:groupmode="layer" inkscape:label="Level 3" opacity="0.2"><g id="arcs2"/><g id="floor2"><use id="stair_17_2" x="360" y="60" xlink:href="#stair" rotate="90" transform="rotate(90,370,70)" class="colorA"/><use id="stair_27_8" x="560" y="180" xlink:href="#stair" rotate="0"/><use id="stair_1_10" x="40" y="220" xlink:href="#stair" rotate="0"/><use id="stair_10_13" x="220" y="280" xlink:href="#stair" rotate="180" transform="rotate(180,230,290)" class="colorA"/></g><g id="labels2"/><g id="walls2"/></g><g id="level1" inkscape:groupmode="layer" inkscape:label="Level 2"><g id="arcs1"><use id="arc_11_16" x="240" y="340" xlink:href="#arc" rotate="90" transform="rotate(90,250,350)"/><use id="arc_25_24" x="520" y="500" xlink:href="#arc" rotate="0"/></g><g id="floor1"><use id="empty_1_1" x="40" y="40" xlink:href="#empty"/><use id="empty_3_1" x="80" y="40" xlink:href="#empty"/><use id="empty_5_1" x="120" y="40" xlink:href="#empty"/><use id="empty_9_1" x="200" y="40" xlink:href="#empty"/><use id="empty_11_1" x="240" y="40" xlink:href="#empty"/><use id="empty_13_1" x="280" y="40" xlink:href="#empty"/><use id="empty_18_1" x="380" y="40" xlink:href="#empty" class="colorA"/><use id="empty_19_1" x="400" y="40" xlink:href="#empty" class="colorA"/><use id="empty_26_1" x="540" y="40" xlink:href="#empty"/><use id="statue_27_1" x="560" y="40" xlink:href="#statue"/><use id="empty_28_1" x="580" y="40" xlink:href="#empty"/><use id="empty_1_2" x="40" y="60" xlink:href="#empty"/><use id="empty_3_2" x="80" y="60" xlink:href="#empty"/><use id="empty_5_2" x="120" y="60" xlink:href="#empty"/><use id="empty_9_2" x="200" y="60" xlink:href="#empty"/><use id="empty_11_2" x="240" y="60" xlink:href="#empty"/><use id="empty_13_2" x="280" y="60" xlink:href="#empty"/><use id="stair_17_2" x="360" y="60" xlink:href="#stair" rotate="90" transform="rotate(90,370,70)" class="colorA"/><use id="empty_18_2" x="380" y="60" xlink:href="#empty" class="colorA"/><use id="empty_19_2" x="400" y="60" xlink:href="#empty" class="colorA"/><use id="empty_20_2" x="420" y="60" xlink:href="#empty" class="colorA"/><use id="empty_21_2" x="440" y="60" xlink:href="#empty" class="colorA"/><use id="empty_22_2" x="460" y="60" xlink:href="#empty" class="colorA"/><use id="stair_24_2" x="500" y="60" xlink:href="#stair" rotate="90" transform="rotate(90,510,70)" class="colorA"/><use id="empty_26_2" x="540" y="60" xlink:href="#empty"/><use id="empty_27_2" x="560" y="60" xlink:href="#empty"/><use id="empty_28_2" x="580" y="60" xlink:href="#empty"/><use id="empty_1_3" x="40" y="80" xlink:href="#empty"/><use id="empty_2_3" x="60" y="80" xlink:href="#empty"/><use id="empty_3_3" x="80" y="80" xlink:href="#empty"/><use id="empty_4_3" x="100" y="80" xlink:href="#empty"/><use id="empty_5_3" x="120" y="80" xlink:href="#empty"/><use id="empty_6_3" x="140" y="80" xlink:href="#empty"/><use id="empty_7_3" x="160" y="80" xlink:href="#empty"/><use id="empty_8_3" x="180" y="80" xlink:href="#empty"/><use id="empty_9_3" x="200" y="80" xlink:href="#empty"/><use id="empty_10_3" x="220" y="80" xlink:href="#empty"/><use id="empty_11_3" x="240" y="80" xlink:href="#empty"/><use id="empty_12_3" x="260" y="80" xlink:href="#empty"/><use id="trap_13_3" x="280" y="80" xlink:href="#trap"/><use id="statue_14_3" x="300" y="80" xlink:href="#statue"/><use id="empty_18_3" x="380" y="80" xlink:href="#empty" class="colorA"/><use id="empty_19_3" x="400" y="80" xlink:href="#empty" class="colorA"/><use id="empty_21_3" x="440" y="80" xlink:href="#empty" class="colorA"/><use id="empty_27_3" x="560" y="80" xlink:href="#empty"/><use id="empty_1_4" x="40" y="100" xlink:href="#empty"/><use id="empty_3_4" x="80" y="100" xlink:href="#empty"/><use id="empty_5_4" x="120" y="100" xlink:href="#empty"/><use id="trap_7_4" x="160" y="100" xlink:href="#trap"/><use id="empty_9_4" x="200" y="100" xlink:href="#empty"/><use id="empty_11_4" x="240" y="100" xlink:href="#empty"/><use id="empty_13_4" x="280" y="100" xlink:href="#empty"/><use id="empty_21_4" x="440" y="100" xlink:href="#empty" class="colorA"/><use id="empty_23_4" x="480" y="100" xlink:href="#empty" class="colorA"/><use id="empty_24_4" x="500" y="100" xlink:href="#empty" class="colorA"/><use id="empty_26_4" x="540" y="100" xlink:href="#empty" class="colorA"/><use id="empty_27_4" x="560" y="100" xlink:href="#empty" class="colorA"/><use id="empty_1_5" x="40" y="120" xlink:href="#empty"/><use id="empty_3_5" x="80" y="120" xlink:href="#empty"/><use id="empty_5_5" x="120" y="120" xlink:href="#empty"/><use id="empty_9_5" x="200" y="120" xlink:href="#empty"/><use id="empty_11_5" x="240" y="120" xlink:href="#empty"/><use id="empty_13_5" x="280" y="120" xlink:href="#empty"/><use id="empty_21_5" x="440" y="120" xlink:href="#empty" class="colorA"/><use id="empty_22_5" x="460" y="120" xlink:href="#empty" class="colorA"/><use id="empty_23_5" x="480" y="120" xlink:href="#empty" class="colorA"/><use id="empty_24_5" x="500" y="120" xlink:href="#empty" class="colorA"/><use id="empty_25_5" x="520" y="120" xlink:href="#empty" class="colorA"/><use id="empty_26_5" x="540" y="120" xlink:href="#empty" class="colorA"/><use id="empty_27_5" x="560" y="120" xlink:href="#empty" class="colorA"/><use id="rubble_1_6" x="40" y="140" xlink:href="#rubble"/><use id="stair_7_6" x="160" y="140" xlink:href="#stair" rotate="180" transform="rotate(180,170,150)"/><use id="empty_13_6" x="280" y="140" xlink:href="#empty"/><use id="empty_17_6" x="360" y="140" xlink:href="#empty" class="colorA"/><use id="empty_18_6" x="380" y="140" xlink:href="#empty" class="colorA"/><use id="empty_21_6" x="440" y="140" xlink:href="#empty" class="colorA"/><use id="empty_23_6" x="480" y="140" xlink:href="#empty" class="colorA"/><use id="empty_24_6" x="500" y="140" xlink:href="#empty" class="colorA"/><use id="empty_26_6" x="540" y="140" xlink:href="#empty" class="colorA"/><use id="empty_27_6" x="560" y="140" xlink:href="#empty" class="colorA"/><use id="empty_1_7" x="40" y="160" xlink:href="#empty"/><use id="empty_3_7" x="80" y="160" xlink:href="#empty"/><use id="empty_5_7" x="120" y="160" xlink:href="#empty"/><use id="empty_12_7" x="260" y="160" xlink:href="#empty"/><use id="empty_13_7" x="280" y="160" xlink:href="#empty"/><use id="stair_14_7" x="300" y="160" xlink:href="#stair" rotate="270" transform="rotate(270,310,170)"/><use id="empty_17_7" x="360" y="160" xlink:href="#empty" class="colorA"/><use id="empty_18_7" x="380" y="160" xlink:href="#empty" class="colorA"/><use id="empty_19_7" x="400" y="160" xlink:href="#empty" class="colorA"/><use id="empty_20_7" x="420" y="160" xlink:href="#empty" class="colorA"/><use id="empty_21_7" x="440" y="160" xlink:href="#empty" class="colorA"/><use id="empty_27_7" x="560" y="160" xlink:href="#empty"/><use id="empty_1_8" x="40" y="180" xlink:href="#empty"/><use id="empty_3_8" x="80" y="180" xlink:href="#empty"/><use id="empty_5_8" x="120" y="180" xlink:href="#empty"/><use id="empty_7_8" x="160" y="180" xlink:href="#empty"/><use id="empty_8_8" x="180" y="180" xlink:href="#empty"/><use id="empty_9_8" x="200" y="180" xlink:href="#empty"/><use id="empty_12_8" x="260" y="180" xlink:href="#empty"/><use id="empty_13_8" x="280" y="180" xlink:href="#empty"/><use id="empty_18_8" x="380" y="180" xlink:href="#empty" class="colorA"/><use id="empty_21_8" x="440" y="180" xlink:href="#empty"/><use id="stair_27_8" x="560" y="180" xlink:href="#stair" rotate="0"/><use id="empty_1_9" x="40" y="200" xlink:href="#empty"/><use id="empty_2_9" x="60" y="200" xlink:href="#empty"/><use id="empty_3_9" x="80" y="200" xlink:href="#empty"/><use id="empty_4_9" x="100" y="200" xlink:href="#empty"/><use id="empty_5_9" x="120" y="200" xlink:href="#empty"/><use id="empty_6_9" x="140" y="200" xlink:href="#empty"/><use id="empty_7_9" x="160" y="200" xlink:href="#empty"/><use id="statue_8_9" x="180" y="200" xlink:href="#statue"/><use id="empty_9_9" x="200" y="200" xlink:href="#empty"/><use id="empty_13_9" x="280" y="200" xlink:href="#empty"/><use id="empty_18_9" x="380" y="200" xlink:href="#empty" class="colorA"/><use id="empty_20_9" x="420" y="200" xlink:href="#empty"/><use id="empty_21_9" x="440" y="200" xlink:href="#empty"/><use id="empty_22_9" x="460" y="200" xlink:href="#empty"/><use id="empty_24_9" x="500" y="200" xlink:href="#empty"/><use id="empty_25_9" x="520" y="200" xlink:href="#empty"/><use id="stair_1_10" x="40" y="220" xlink:href="#stair" rotate="0"/><use id="empty_3_10" x="80" y="220" xlink:href="#empty"/><use id="empty_5_10" x="120" y="220" xlink:href="#empty"/><use id="empty_7_10" x="160" y="220" xlink:href="#empty"/><use id="empty_8_10" x="180" y="220" xlink:href="#empty"/><use id="empty_9_10" x="200" y="220" xlink:href="#empty"/><use id="empty_12_10" x="260" y="220" xlink:href="#empty"/><use id="empty_13_10" x="280" y="220" xlink:href="#empty"/><use id="empty_14_10" x="300" y="220" xlink:href="#empty"/><use id="empty_18_10" x="380" y="220" xlink:href="#empty" class="colorA"/><use id="empty_20_10" x="420" y="220" xlink:href="#empty"/><use id="empty_21_10" x="440" y="220" xlink:href="#empty"/><use id="empty_22_10" x="460" y="220" xlink:href="#empty"/><use id="empty_23_10" x="480" y="220" xlink:href="#empty"/><use id="empty_24_10" x="500" y="220" xlink:href="#empty"/><use id="empty_25_10" x="520" y="220" xlink:href="#empty"/><use id="empty_3_11" x="80" y="240" xlink:href="#empty"/><use id="empty_5_11" x="120" y="240" xlink:href="#empty"/><use id="empty_8_11" x="180" y="240" xlink:href="#empty"/><use id="empty_12_11" x="260" y="240" xlink:href="#empty"/><use id="empty_13_11" x="280" y="240" xlink:href="#empty"/><use id="empty_14_11" x="300" y="240" xlink:href="#empty"/><use id="empty_15_11" x="320" y="240" xlink:href="#empty"/><use id="empty_16_11" x="340" y="240" xlink:href="#empty"/><use id="empty_17_11" x="360" y="240" xlink:href="#empty"/><use id="empty_18_11" x="380" y="240" xlink:href="#empty" class="colorA"/><use id="empty_20_11" x="420" y="240" xlink:href="#empty"/><use id="statue_21_11" x="440" y="240" xlink:href="#statue"/><use id="empty_22_11" x="460" y="240" xlink:href="#empty"/><use id="empty_27_11" x="560" y="240" xlink:href="#empty"/><use id="empty_28_11" x="580" y="240" xlink:href="#empty"/><use id="empty_3_12" x="80" y="260" xlink:href="#empty"/><use id="empty_8_12" x="180" y="260" xlink:href="#empty"/><use id="empty_18_12" x="380" y="260" xlink:href="#empty" class="colorA"/><use id="empty_22_12" x="460" y="260" xlink:href="#empty"/><use id="empty_27_12" x="560" y="260" xlink:href="#empty"/><use id="empty_28_12" x="580" y="260" xlink:href="#empty"/><use id="empty_1_13" x="40" y="280" xlink:href="#empty"/><use id="empty_2_13" x="60" y="280" xlink:href="#empty"/><use id="empty_3_13" x="80" y="280" xlink:href="#empty"/><use id="empty_4_13" x="100" y="280" xlink:href="#empty"/><use id="empty_5_13" x="120" y="280" xlink:href="#empty"/><use id="empty_8_13" x="180" y="280" xlink:href="#empty"/><use id="stair_10_13" x="220" y="280" xlink:href="#stair" rotate="180" transform="rotate(180,230,290)" class="colorA"/><use id="empty_15_13" x="320" y="280" xlink:href="#empty"/><use id="empty_16_13" x="340" y="280" xlink:href="#empty"/><use id="empty_18_13" x="380" y="280" xlink:href="#empty" class="colorA"/><use id="chest_20_13" x="420" y="280" xlink:href="#chest" rotate="0"/><use id="empty_21_13" x="440" y="280" xlink:href="#empty"/><use id="empty_22_13" x="460" y="280" xlink:href="#empty"/><use id="empty_23_13" x="480" y="280" xlink:href="#empty"/><use id="chest_24_13" x="500" y="280" xlink:href="#chest" rotate="0"/><use id="empty_27_13" x="560" y="280" xlink:href="#empty"/><use id="empty_3_14" x="80" y="300" xlink:href="#empty"/><use id="empty_8_14" x="180" y="300" xlink:href="#empty"/><use id="empty_10_14" x="220" y="300" xlink:href="#empty" class="colorA"/><use id="empty_11_14" x="240" y="300" xlink:href="#empty" class="colorA"/><use id="pillar_12_14" x="260" y="300" xlink:href="#pillar" class="colorA"/><use id="empty_15_14" x="320" y="300" xlink:href="#empty"/><use id="empty_16_14" x="340" y="300" xlink:href="#empty"/><use id="empty_18_14" x="380" y="300" xlink:href="#empty" class="colorA"/><use id="chest_20_14" x="420" y="300" xlink:href="#chest" rotate="0"/><use id="empty_21_14" x="440" y="300" xlink:href="#empty"/><use id="empty_23_14" x="480" y="300" xlink:href="#empty"/><use id="chest_24_14" x="500" y="300" xlink:href="#chest" rotate="0"/><use id="empty_27_14" x="560" y="300" xlink:href="#empty"/><use id="empty_28_14" x="580" y="300" xlink:href="#empty"/><use id="empty_1_15" x="40" y="320" xlink:href="#empty"/><use id="empty_2_15" x="60" y="320" xlink:href="#empty"/><use id="empty_3_15" x="80" y="320" xlink:href="#empty"/><use id="empty_4_15" x="100" y="320" xlink:href="#empty"/><use id="empty_5_15" x="120" y="320" xlink:href="#empty"/><use id="trap_8_15" x="180" y="320" xlink:href="#trap"/><use id="empty_9_15" x="200" y="320" xlink:href="#empty"/><use id="empty_10_15" x="220" y="320" xlink:href="#empty" class="colorA"/><use id="table_11_15" x="240" y="320" xlink:href="#table" rotate="90" transform="rotate(90,250,330)" class="colorA"/><use id="statue_12_15" x="260" y="320" xlink:href="#statue" class="colorA"/><use id="empty_16_15" x="340" y="320" xlink:href="#empty"/><use id="empty_18_15" x="380" y="320" xlink:href="#empty" class="colorA"/><use id="empty_27_15" x="560" y="320" xlink:href="#empty"/><use id="empty_3_16" x="80" y="340" xlink:href="#empty"/><use id="empty_5_16" x="120" y="340" xlink:href="#empty"/><use id="empty_6_16" x="140" y="340" xlink:href="#empty"/><use id="empty_10_16" x="220" y="340" xlink:href="#empty" class="colorA"/><use id="empty_11_16" x="240" y="340" xlink:href="#empty" class="colorA"/><use id="pillar_12_16" x="260" y="340" xlink:href="#pillar" class="colorA"/><use id="empty_15_16" x="320" y="340" xlink:href="#empty"/><use id="empty_16_16" x="340" y="340" xlink:href="#empty"/><use id="empty_18_16" x="380" y="340" xlink:href="#empty" class="colorA"/><use id="empty_23_16" x="480" y="340" xlink:href="#empty" class="colorA"/><use id="empty_24_16" x="500" y="340" xlink:href="#empty" class="colorA"/><use id="empty_25_16" x="520" y="340" xlink:href="#empty" class="colorA"/><use id="empty_26_16" x="540" y="340" xlink:href="#empty" class="colorA"/><use id="empty_27_16" x="560" y="340" xlink:href="#empty"/><use id="stair_1_17" x="40" y="360" xlink:href="#stair" rotate="0"/><use id="empty_3_17" x="80" y="360" xlink:href="#empty"/><use id="empty_5_17" x="120" y="360" xlink:href="#empty"/><use id="empty_6_17" x="140" y="360" xlink:href="#empty"/><use id="empty_10_17" x="220" y="360" xlink:href="#empty" class="colorA"/><use id="empty_15_17" x="320" y="360" xlink:href="#empty"/><use id="empty_16_17" x="340" y="360" xlink:href="#empty"/><use id="empty_18_17" x="380" y="360" xlink:href="#empty" class="colorA"/><use id="stair_20_17" x="420" y="360" xlink:href="#stair" rotate="270" transform="rotate(270,430,370)" class="colorA"/><use id="empty_22_17" x="460" y="360" xlink:href="#empty" class="colorA"/><use id="empty_23_17" x="480" y="360" xlink:href="#empty" class="colorA"/><use id="empty_24_17" x="500" y="360" xlink:href="#empty" class="colorA"/><use id="empty_25_17" x="520" y="360" xlink:href="#empty" class="colorA"/><use id="empty_27_17" x="560" y="360" xlink:href="#empty"/><use id="empty_6_18" x="140" y="380" xlink:href="#empty" class="colorA"/><use id="empty_10_18" x="220" y="380" xlink:href="#empty" class="colorA"/><use id="diagonal_12_18" x="260" y="380" xlink:href="#diagonal" rotate="0"/><use id="statue_13_18" x="280" y="380" xlink:href="#statue"/><use id="diagonal_14_18" x="300" y="380" xlink:href="#diagonal" rotate="90" transform="rotate(90,310,390)"/><use id="empty_16_18" x="340" y="380" xlink:href="#empty" class="colorA"/><use id="empty_17_18" x="360" y="380" xlink:href="#empty" class="colorA"/><use id="empty_18_18" x="380" y="380" xlink:href="#empty" class="colorA"/><use id="empty_23_18" x="480" y="380" xlink:href="#empty" class="colorA"/><use id="empty_24_18" x="500" y="380" xlink:href="#empty" class="colorA"/><use id="empty_25_18" x="520" y="380" xlink:href="#empty" class="colorA"/><use id="empty_26_18" x="540" y="380" xlink:href="#empty" class="colorA"/><use id="empty_27_18" x="560" y="380" xlink:href="#empty"/><use id="empty_1_19" x="40" y="400" xlink:href="#empty"/><use id="generic-trap_3_19" x="80" y="400" xlink:href="#generic-trap"/><use id="empty_4_19" x="100" y="400" xlink:href="#empty"/><use id="empty_5_19" x="120" y="400" xlink:href="#empty" class="colorA"/><use id="empty_6_19" x="140" y="400" xlink:href="#empty" class="colorA"/><use id="empty_7_19" x="160" y="400" xlink:href="#empty" class="colorA"/><use id="empty_8_19" x="180" y="400" xlink:href="#empty" class="colorA"/><use id="empty_9_19" x="200" y="400" xlink:href="#empty" class="colorA"/><use id="empty_10_19" x="220" y="400" xlink:href="#empty" class="colorA"/><use id="empty_12_19" x="260" y="400" xlink:href="#empty"/><use id="empty_13_19" x="280" y="400" xlink:href="#empty"/><use id="empty_14_19" x="300" y="400" xlink:href="#empty"/><use id="empty_16_19" x="340" y="400" xlink:href="#empty" class="colorA"/><use id="empty_27_19" x="560" y="400" xlink:href="#empty"/><use id="empty_1_20" x="40" y="420" xlink:href="#empty"/><use id="empty_3_20" x="80" y="420" xlink:href="#empty"/><use id="empty_5_20" x="120" y="420" xlink:href="#empty" class="colorA"/><use id="empty_6_20" x="140" y="420" xlink:href="#empty" class="colorA"/><use id="empty_8_20" x="180" y="420" xlink:href="#empty" class="colorA"/><use id="pillar_12_20" x="260" y="420" xlink:href="#pillar"/><use id="empty_13_20" x="280" y="420" xlink:href="#empty"/><use id="pillar_14_20" x="300" y="420" xlink:href="#pillar"/><use id="empty_16_20" x="340" y="420" xlink:href="#empty" class="colorA"/><use id="diagonal_18_20" x="380" y="420" xlink:href="#diagonal" rotate="0"/><use id="empty_19_20" x="400" y="420" xlink:href="#empty"/><use id="diagonal_20_20" x="420" y="420" xlink:href="#diagonal" rotate="90" transform="rotate(90,430,430)"/><use id="empty_23_20" x="480" y="420" xlink:href="#empty" class="colorA"/><use id="empty_24_20" x="500" y="420" xlink:href="#empty" class="colorA"/><use id="empty_25_20" x="520" y="420" xlink:href="#empty" class="colorA"/><use id="empty_26_20" x="540" y="420" xlink:href="#empty"/><use id="empty_27_20" x="560" y="420" xlink:href="#empty"/><use id="empty_28_20" x="580" y="420" xlink:href="#empty"/><use id="empty_1_21" x="40" y="440" xlink:href="#empty"/><use id="empty_2_21" x="60" y="440" xlink:href="#empty"/><use id="empty_3_21" x="80" y="440" xlink:href="#empty"/><use id="empty_8_21" x="180" y="440" xlink:href="#empty" class="colorA"/><use id="empty_13_21" x="280" y="440" xlink:href="#empty" class="colorA"/><use id="empty_16_21" x="340" y="440" xlink:href="#empty" class="colorA"/><use id="empty_18_21" x="380" y="440" xlink:href="#empty"/><use id="empty_19_21" x="400" y="440" xlink:href="#empty"/><use id="empty_20_21" x="420" y="440" xlink:href="#empty"/><use id="empty_23_21" x="480" y="440" xlink:href="#empty" class="colorA"/><use id="empty_26_21" x="540" y="440" xlink:href="#empty"/><use id="empty_27_21" x="560" y="440" xlink:href="#empty"/><use id="empty_28_21" x="580" y="440" xlink:href="#empty"/><use id="empty_1_22" x="40" y="460" xlink:href="#empty"/><use id="empty_2_22" x="60" y="460" xlink:href="#empty"/><use id="empty_3_22" x="80" y="460" xlink:href="#empty"/><use id="empty_6_22" x="140" y="460" xlink:href="#empty" class="colorA"/><use id="empty_7_22" x="160" y="460" xlink:href="#empty" class="colorA"/><use id="empty_8_22" x="180" y="460" xlink:href="#empty" class="colorA"/><use id="empty_9_22" x="200" y="460" xlink:href="#empty" class="colorA"/><use id="empty_10_22" x="220" y="460" xlink:href="#empty" class="colorA"/><use id="empty_11_22" x="240" y="460" xlink:href="#empty" class="colorA"/><use id="empty_12_22" x="260" y="460" xlink:href="#empty" class="colorA"/><use id="empty_13_22" x="280" y="460" xlink:href="#empty" class="colorA"/><use id="empty_14_22" x="300" y="460" xlink:href="#empty" class="colorA"/><use id="empty_15_22" x="320" y="460" xlink:href="#empty" class="colorA"/><use id="empty_16_22" x="340" y="460" xlink:href="#empty" class="colorA"/><use id="empty_18_22" x="380" y="460" xlink:href="#empty"/><use id="fountain_19_22" x="400" y="460" xlink:href="#fountain"/><use id="empty_20_22" x="420" y="460" xlink:href="#empty"/><use id="empty_23_22" x="480" y="460" xlink:href="#empty" class="colorA"/><use id="empty_24_22" x="500" y="460" xlink:href="#empty" class="colorA"/><use id="empty_25_22" x="520" y="460" xlink:href="#empty" class="colorA"/><use id="empty_26_22" x="540" y="460" xlink:href="#empty" class="colorA"/><use id="empty_27_22" x="560" y="460" xlink:href="#empty" class="colorA"/><use id="empty_28_22" x="580" y="460" xlink:href="#empty" class="colorA"/><use id="empty_3_23" x="80" y="480" xlink:href="#empty"/><use id="empty_6_23" x="140" y="480" xlink:href="#empty" class="colorA"/><use id="empty_7_23" x="160" y="480" xlink:href="#empty" class="colorA"/><use id="empty_10_23" x="220" y="480" xlink:href="#empty" class="colorA"/><use id="pillar_18_23" x="380" y="480" xlink:href="#pillar"/><use id="empty_19_23" x="400" y="480" xlink:href="#empty"/><use id="pillar_20_23" x="420" y="480" xlink:href="#pillar"/><use id="empty_23_23" x="480" y="480" xlink:href="#empty" class="colorA"/><use id="empty_26_23" x="540" y="480" xlink:href="#empty" class="colorA"/><use id="pillar_2_24" x="60" y="500" xlink:href="#pillar"/><use id="empty_3_24" x="80" y="500" xlink:href="#empty"/><use id="pillar_4_24" x="100" y="500" xlink:href="#pillar"/><use id="empty_10_24" x="220" y="500" xlink:href="#empty" class="colorA"/><use id="diagonal_18_24" x="380" y="500" xlink:href="#diagonal" rotate="270" transform="rotate(270,390,510)"/><use id="empty_19_24" x="400" y="500" xlink:href="#empty"/><use id="diagonal_20_24" x="420" y="500" xlink:href="#diagonal" rotate="180" transform="rotate(180,430,510)"/><use id="empty_25_24" x="520" y="500" xlink:href="#empty" class="colorA"/><use id="empty_26_24" x="540" y="500" xlink:href="#empty" class="colorA"/><use id="empty_27_24" x="560" y="500" xlink:href="#empty" class="colorA"/><use id="pillar_2_25" x="60" y="520" xlink:href="#pillar"/><use id="empty_3_25" x="80" y="520" xlink:href="#empty"/><use id="pillar_4_25" x="100" y="520" xlink:href="#pillar"/><use id="empty_7_25" x="160" y="520" xlink:href="#empty"/><use id="empty_8_25" x="180" y="520" xlink:href="#empty"/><use id="empty_10_25" x="220" y="520" xlink:href="#empty" class="colorA"/><use id="empty_13_25" x="280" y="520" xlink:href="#empty"/><use id="empty_14_25" x="300" y="520" xlink:href="#empty"/><use id="empty_15_25" x="320" y="520" xlink:href="#empty"/><use id="empty_19_25" x="400" y="520" xlink:href="#empty"/><use id="stair_23_25" x="480" y="520" xlink:href="#stair" rotate="180" transform="rotate(180,490,530)" class="colorA"/><use id="empty_25_25" x="520" y="520" xlink:href="#empty" class="colorA"/><use id="stair-spiral_26_25" x="540" y="520" xlink:href="#stair-spiral" rotate="0" class="colorA"/><use id="empty_27_25" x="560" y="520" xlink:href="#empty" class="colorA"/><use id="pillar_2_26" x="60" y="540" xlink:href="#pillar"/><use id="table_3_26" x="80" y="540" xlink:href="#table" rotate="0"/><use id="pillar_4_26" x="100" y="540" xlink:href="#pillar"/><use id="empty_7_26" x="160" y="540" xlink:href="#empty"/><use id="empty_8_26" x="180" y="540" xlink:href="#empty"/><use id="empty_9_26" x="200" y="540" xlink:href="#empty" class="colorA"/><use id="empty_10_26" x="220" y="540" xlink:href="#empty" class="colorA"/><use id="empty_11_26" x="240" y="540" xlink:href="#empty" class="colorA"/><use id="empty_12_26" x="260" y="540" xlink:href="#empty"/><use id="empty_13_26" x="280" y="540" xlink:href="#empty"/><use id="dais-round_14_26" x="300" y="540" xlink:href="#dais-round"/><use id="empty_15_26" x="320" y="540" xlink:href="#empty"/><use id="empty_16_26" x="340" y="540" xlink:href="#empty"/><use id="empty_17_26" x="360" y="540" xlink:href="#empty"/><use id="empty_18_26" x="380" y="540" xlink:href="#empty"/><use id="empty_19_26" x="400" y="540" xlink:href="#empty"/><use id="empty_20_26" x="420" y="540" xlink:href="#empty"/><use id="empty_21_26" x="440" y="540" xlink:href="#empty"/><use id="empty_25_26" x="520" y="540" xlink:href="#empty" class="colorA"/><use id="empty_26_26" x="540" y="540" xlink:href="#empty" class="colorA"/><use id="empty_27_26" x="560" y="540" xlink:href="#empty" class="colorA"/><use id="pillar_2_27" x="60" y="560" xlink:href="#pillar"/><use id="statue_3_27" x="80" y="560" xlink:href="#statue"/><use id="pillar_4_27" x="100" y="560" xlink:href="#pillar"/><use id="empty_13_27" x="280" y="560" xlink:href="#empty"/><use id="empty_14_27" x="300" y="560" xlink:href="#empty"/><use id="empty_15_27" x="320" y="560" xlink:href="#empty"/><use id="empty_17_27" x="360" y="560" xlink:href="#empty"/><use id="empty_18_27" x="380" y="560" xlink:href="#empty"/><use id="empty_20_27" x="420" y="560" xlink:href="#empty"/><use id="empty_21_27" x="440" y="560" xlink:href="#empty"/><use id="empty_22_27" x="460" y="560" xlink:href="#empty"/><use id="empty_23_27" x="480" y="560" xlink:href="#empty"/><use id="empty_24_27" x="500" y="560" xlink:href="#empty"/><use id="empty_25_27" x="520" y="560" xlink:href="#empty"/></g><g id="labels1"><text id="label_19_2" x="410" y="74">29</text><text id="label_27_2" x="570" y="74">32</text><text id="label_4_3" x="110" y="94">19</text><text id="label_7_3" x="170" y="94">21</text><text id="label_10_3" x="230" y="94">19</text><text id="label_13_4" x="290" y="114">22</text><text id="label_1_5" x="50" y="134">20</text><text id="label_23_5" x="490" y="134">30</text><text id="label_26_5" x="550" y="134">31</text><text id="label_18_6" x="390" y="154">28</text><text id="label_13_7" x="290" y="174">23</text><text id="label_4_9" x="110" y="214">19</text><text id="label_8_10" x="190" y="234">18</text><text id="label_13_10" x="290" y="234">24</text><text id="label_21_10" x="450" y="234">33</text><text id="label_24_10" x="510" y="234">34</text><text id="label_27_12" x="570" y="274">2</text><text id="label_16_13" x="350" y="294">27</text><text id="label_22_13" x="470" y="294">35</text><text id="label_8_14" x="190" y="314">17</text><text id="label_11_14" x="250" y="314">16</text><text id="label_29_14" x="610" y="314">1</text><text id="label_3_15" x="90" y="334">19</text><text id="label_6_16" x="150" y="354">15</text><text id="label_15_16" x="330" y="354">26</text><text id="label_24_17" x="510" y="374">7</text><text id="label_6_19" x="150" y="414">14</text><text id="label_13_19" x="290" y="414">25</text><text id="label_25_20" x="530" y="434">4</text><text id="label_28_20" x="590" y="434">3</text><text id="label_19_21" x="410" y="454">10</text><text id="label_7_22" x="170" y="474">13</text><text id="label_25_22" x="530" y="474">5</text><text id="label_26_24" x="550" y="514">6</text><text id="label_7_25" x="170" y="534">12</text><text id="label_14_25" x="310" y="534">11</text><text id="label_21_26" x="450" y="554">8</text><text id="label_18_27" x="390" y="574">9</text></g><g id="walls1"><use id="door_27_4" x="560" y="100" xlink:href="#door" rotate="90" transform="rotate(90,570,110)"/><use id="door_13_6" x="280" y="140" xlink:href="#door" rotate="90" transform="rotate(90,290,150)"/><use id="door_27_7" x="560" y="160" xlink:href="#door" rotate="90" transform="rotate(90,570,170)"/><use id="door_21_8" x="440" y="180" xlink:href="#door" rotate="90" transform="rotate(90,450,190)"/><use id="door_23_10" x="480" y="220" xlink:href="#door" rotate="0"/><use id="door_15_11" x="320" y="240" xlink:href="#door" rotate="0"/><use id="door_3_12" x="80" y="260" xlink:href="#door" rotate="90" transform="rotate(90,90,270)"/><use id="secret_22_12" x="460" y="260" xlink:href="#secret" rotate="90" transform="rotate(90,470,270)"/><use id="door_27_14" x="560" y="300" xlink:href="#door" rotate="90" transform="rotate(90,570,310)"/><use id="door_10_15" x="220" y="320" xlink:href="#door" rotate="0"/><use id="secret_5_16" x="120" y="340" xlink:href="#secret" rotate="90" transform="rotate(90,130,350)"/><use id="secret_16_16" x="340" y="340" xlink:href="#secret" rotate="90" transform="rotate(90,350,350)"/><use id="arrow-slit_26_16" x="540" y="340" xlink:href="#arrow-slit" rotate="180" transform="rotate(180,550,350)"/><use id="door_6_18" x="140" y="380" xlink:href="#door" rotate="90" transform="rotate(90,150,390)"/><use id="door_16_18" x="340" y="380" xlink:href="#door" rotate="90" transform="rotate(90,350,390)"/><use id="arrow-slit_26_18" x="540" y="380" xlink:href="#arrow-slit" rotate="180" transform="rotate(180,550,390)"/><use id="secret_5_19" x="120" y="400" xlink:href="#secret" rotate="0"/><use id="portcullis_26_20" x="540" y="420" xlink:href="#portcullis" rotate="0"/><use id="door_27_20" x="560" y="420" xlink:href="#door" rotate="90" transform="rotate(90,570,430)"/><use id="door_13_21" x="280" y="440" xlink:href="#door" rotate="90" transform="rotate(90,290,450)"/><use id="arrow-slit_26_22" x="540" y="460" xlink:href="#arrow-slit" rotate="90" transform="rotate(90,550,470)"/><use id="arrow-slit_27_22" x="560" y="460" xlink:href="#arrow-slit" rotate="90" transform="rotate(90,570,470)"/><use id="arrow-slit_28_22" x="580" y="460" xlink:href="#arrow-slit" rotate="90" transform="rotate(90,590,470)"/><use id="door_3_23" x="80" y="480" xlink:href="#door" rotate="90" transform="rotate(90,90,490)"/><use id="door_19_25" x="400" y="520" xlink:href="#door" rotate="90" transform="rotate(90,410,530)"/><use id="door_9_26" x="200" y="540" xlink:href="#door" rotate="0"/><use id="door_12_26" x="260" y="540" xlink:href="#door" rotate="0"/><use id="door_17_26" x="360" y="540" xlink:href="#door" rotate="0"/><use id="door_22_27" x="460" y="560" xlink:href="#door" rotate="0"/><use id="door_25_27" x="520" y="560" xlink:href="#door" rotate="90" transform="rotate(90,530,570)"/></g></g><g id="level0" inkscape:groupmode="layer" inkscape:label="Level 1" opacity="0.09999999999999998"><g id="arcs0"><use id="arc_9_16" x="200" y="340" xlink:href="#arc" rotate="0"/><use id="arc_22_26" x="460" y="540" xlink:href="#arc" rotate="0"/></g><g id="floor0"><use id="empty_1_1" x="40" y="40" xlink:href="#empty"/><use id="bed_2_1" x="60" y="40" xlink:href="#bed" rotate="0"/><use id="empty_4_1" x="100" y="40" xlink:href="#empty"/><use id="bed_5_1" x="120" y="40" xlink:href="#bed" rotate="0"/><use id="pillar_8_1" x="180" y="40" xlink:href="#pillar"/><use id="statue_9_1" x="200" y="40" xlink:href="#statue"/><use id="pillar_10_1" x="220" y="40" xlink:href="#pillar"/><use id="rockd_15_1" x="320" y="40" xlink:href="#rockd" rotate="270" transform="rotate(270,330,50)"/><use id="empty_19_1" x="400" y="40" xlink:href="#empty"/><use id="empty_20_1" x="420" y="40" xlink:href="#empty"/><use id="empty_25_1" x="520" y="40" xlink:href="#empty" class="colorA"/><use id="empty_26_1" x="540" y="40" xlink:href="#empty" class="colorA"/><use id="empty_27_1" x="560" y="40" xlink:href="#empty" class="colorA"/><use id="empty_1_2" x="40" y="60" xlink:href="#empty"/><use id="bed_2_2" x="60" y="60" xlink:href="#bed" rotate="0"/><use id="empty_4_2" x="100" y="60" xlink:href="#empty"/><use id="bed_5_2" x="120" y="60" xlink:href="#bed" rotate="0"/><use id="pillar_8_2" x="180" y="60" xlink:href="#pillar"/><use id="empty_9_2" x="200" y="60" xlink:href="#empty"/><use id="pillar_10_2" x="220" y="60" xlink:href="#pillar"/><use id="rock2b_12_1" x="260" y="40" xlink:href="#rock2b" rotate="0"/><use id="empty_13_2" x="280" y="60" xlink:href="#empty"/><use id="rock2b_12_2" x="260" y="60" xlink:href="#rock2b" rotate="270" transform="rotate(270,270,70)"/><use id="rock1_13_1" x="280" y="40" xlink:href="#rock1" rotate="90" transform="rotate(90,290,50)"/><use id="rock2b_14_2" x="300" y="60" xlink:href="#rock2b" rotate="180" transform="rotate(180,310,70)"/><use id="rock1_14_1" x="300" y="40" xlink:href="#rock1" rotate="90" transform="rotate(90,310,50)"/><use id="rock1_16_1" x="340" y="40" xlink:href="#rock1" rotate="90" transform="rotate(90,350,50)"/><use id="rock2a_17_2" x="360" y="60" xlink:href="#rock2a" rotate="180" transform="rotate(180,370,70)"/><use id="rock2b_16_2" x="340" y="60" xlink:href="#rock2b" rotate="270" transform="rotate(270,350,70)"/><use id="rock2a_17_1" x="360" y="40" xlink:href="#rock2a" rotate="90" transform="rotate(90,370,50)"/><use id="empty_19_2" x="400" y="60" xlink:href="#empty"/><use id="empty_20_2" x="420" y="60" xlink:href="#empty"/><use id="stair_24_2" x="500" y="60" xlink:href="#stair" rotate="90" transform="rotate(90,510,70)" class="colorA"/><use id="empty_25_2" x="520" y="60" xlink:href="#empty" class="colorA"/><use id="empty_26_2" x="540" y="60" xlink:href="#empty" class="colorA"/><use id="statue_27_2" x="560" y="60" xlink:href="#statue" class="colorA"/><use id="empty_1_3" x="40" y="80" xlink:href="#empty"/><use id="bed_2_3" x="60" y="80" xlink:href="#bed" rotate="0"/><use id="empty_4_3" x="100" y="80" xlink:href="#empty"/><use id="bed_5_3" x="120" y="80" xlink:href="#bed" rotate="0"/><use id="pillar_8_3" x="180" y="80" xlink:href="#pillar"/><use id="empty_9_3" x="200" y="80" xlink:href="#empty"/><use id="pillar_10_3" x="220" y="80" xlink:href="#pillar"/><use id="empty_13_3" x="280" y="80" xlink:href="#empty"/><use id="empty_20_3" x="420" y="80" xlink:href="#empty"/><use id="empty_25_3" x="520" y="80" xlink:href="#empty" class="colorA"/><use id="empty_26_3" x="540" y="80" xlink:href="#empty" class="colorA"/><use id="empty_27_3" x="560" y="80" xlink:href="#empty" class="colorA"/><use id="empty_1_4" x="40" y="100" xlink:href="#empty"/><use id="empty_4_4" x="100" y="100" xlink:href="#empty"/><use id="empty_9_4" x="200" y="100" xlink:href="#empty"/><use id="empty_12_4" x="260" y="100" xlink:href="#empty"/><use id="empty_13_4" x="280" y="100" xlink:href="#empty"/><use id="empty_14_4" x="300" y="100" xlink:href="#empty"/><use id="empty_16_4" x="340" y="100" xlink:href="#empty"/><use id="empty_17_4" x="360" y="100" xlink:href="#empty"/><use id="empty_18_4" x="380" y="100" xlink:href="#empty"/><use id="empty_19_4" x="400" y="100" xlink:href="#empty"/><use id="empty_20_4" x="420" y="100" xlink:href="#empty"/><use id="empty_26_4" x="540" y="100" xlink:href="#empty"/><use id="empty_1_5" x="40" y="120" xlink:href="#empty"/><use id="empty_2_5" x="60" y="120" xlink:href="#empty"/><use id="empty_3_5" x="80" y="120" xlink:href="#empty"/><use id="empty_4_5" x="100" y="120" xlink:href="#empty"/><use id="empty_9_5" x="200" y="120" xlink:href="#empty"/><use id="empty_10_5" x="220" y="120" xlink:href="#empty"/><use id="empty_11_5" x="240" y="120" xlink:href="#empty"/><use id="empty_12_5" x="260" y="120" xlink:href="#empty"/><use id="statue_13_5" x="280" y="120" xlink:href="#statue"/><use id="empty_14_5" x="300" y="120" xlink:href="#empty"/><use id="empty_15_5" x="320" y="120" xlink:href="#empty"/><use id="empty_16_5" x="340" y="120" xlink:href="#empty"/><use id="empty_17_5" x="360" y="120" xlink:href="#empty"/><use id="empty_20_5" x="420" y="120" xlink:href="#empty"/><use id="empty_26_5" x="540" y="120" xlink:href="#empty"/><use id="empty_3_6" x="80" y="140" xlink:href="#empty"/><use id="stair_7_6" x="160" y="140" xlink:href="#stair" rotate="180" transform="rotate(180,170,150)"/><use id="empty_12_6" x="260" y="140" xlink:href="#empty"/><use id="empty_13_6" x="280" y="140" xlink:href="#empty"/><use id="empty_14_6" x="300" y="140" xlink:href="#empty"/><use id="empty_20_6" x="420" y="140" xlink:href="#empty"/><use id="empty_21_6" x="440" y="140" xlink:href="#empty"/><use id="empty_26_6" x="540" y="140" xlink:href="#empty"/><use id="empty_3_7" x="80" y="160" xlink:href="#empty"/><use id="empty_7_7" x="160" y="160" xlink:href="#empty"/><use id="empty_13_7" x="280" y="160" xlink:href="#empty"/><use id="empty_20_7" x="420" y="160" xlink:href="#empty"/><use id="empty_21_7" x="440" y="160" xlink:href="#empty"/><use id="empty_22_7" x="460" y="160" xlink:href="#empty"/><use id="empty_23_7" x="480" y="160" xlink:href="#empty"/><use id="empty_24_7" x="500" y="160" xlink:href="#empty"/><use id="empty_25_7" x="520" y="160" xlink:href="#empty"/><use id="empty_26_7" x="540" y="160" xlink:href="#empty"/><use id="empty_3_8" x="80" y="180" xlink:href="#empty"/><use id="empty_6_8" x="140" y="180" xlink:href="#empty"/><use id="empty_7_8" x="160" y="180" xlink:href="#empty"/><use id="empty_8_8" x="180" y="180" xlink:href="#empty"/><use id="empty_13_8" x="280" y="180" xlink:href="#empty"/><use id="empty_24_8" x="500" y="180" xlink:href="#empty"/><use id="empty_25_8" x="520" y="180" xlink:href="#empty"/><use id="empty_26_8" x="540" y="180" xlink:href="#empty"/><use id="empty_3_9" x="80" y="200" xlink:href="#empty"/><use id="empty_4_9" x="100" y="200" xlink:href="#empty"/><use id="empty_5_9" x="120" y="200" xlink:href="#empty"/><use id="empty_6_9" x="140" y="200" xlink:href="#empty"/><use id="empty_7_9" x="160" y="200" xlink:href="#empty"/><use id="empty_8_9" x="180" y="200" xlink:href="#empty"/><use id="empty_9_9" x="200" y="200" xlink:href="#empty"/><use id="empty_10_9" x="220" y="200" xlink:href="#empty"/><use id="empty_11_9" x="240" y="200" xlink:href="#empty"/><use id="empty_12_9" x="260" y="200" xlink:href="#empty"/><use id="empty_13_9" x="280" y="200" xlink:href="#empty"/><use id="empty_14_9" x="300" y="200" xlink:href="#empty"/><use id="empty_15_9" x="320" y="200" xlink:href="#empty"/><use id="empty_16_9" x="340" y="200" xlink:href="#empty"/><use id="empty_17_9" x="360" y="200" xlink:href="#empty"/><use id="empty_18_9" x="380" y="200" xlink:href="#empty"/><use id="empty_19_9" x="400" y="200" xlink:href="#empty"/><use id="empty_20_9" x="420" y="200" xlink:href="#empty"/><use id="empty_21_9" x="440" y="200" xlink:href="#empty"/><use id="empty_24_9" x="500" y="200" xlink:href="#empty"/><use id="empty_3_10" x="80" y="220" xlink:href="#empty"/><use id="empty_6_10" x="140" y="220" xlink:href="#empty"/><use id="empty_7_10" x="160" y="220" xlink:href="#empty"/><use id="empty_8_10" x="180" y="220" xlink:href="#empty"/><use id="empty_10_10" x="220" y="220" xlink:href="#empty"/><use id="empty_13_10" x="280" y="220" xlink:href="#empty"/><use id="empty_19_10" x="400" y="220" xlink:href="#empty"/><use id="empty_20_10" x="420" y="220" xlink:href="#empty"/><use id="empty_21_10" x="440" y="220" xlink:href="#empty"/><use id="empty_24_10" x="500" y="220" xlink:href="#empty"/><use id="empty_1_11" x="40" y="240" xlink:href="#empty"/><use id="empty_2_11" x="60" y="240" xlink:href="#empty"/><use id="empty_3_11" x="80" y="240" xlink:href="#empty"/><use id="empty_10_11" x="220" y="240" xlink:href="#empty"/><use id="empty_13_11" x="280" y="240" xlink:href="#empty"/><use id="empty_19_11" x="400" y="240" xlink:href="#empty"/><use id="empty_20_11" x="420" y="240" xlink:href="#empty"/><use id="empty_21_11" x="440" y="240" xlink:href="#empty"/><use id="empty_23_11" x="480" y="240" xlink:href="#empty"/><use id="empty_24_11" x="500" y="240" xlink:href="#empty"/><use id="empty_1_12" x="40" y="260" xlink:href="#empty"/><use id="empty_2_12" x="60" y="260" xlink:href="#empty"/><use id="empty_3_12" x="80" y="260" xlink:href="#empty"/><use id="empty_9_12" x="200" y="260" xlink:href="#empty"/><use id="empty_10_12" x="220" y="260" xlink:href="#empty"/><use id="empty_11_12" x="240" y="260" xlink:href="#empty"/><use id="empty_13_12" x="280" y="260" xlink:href="#empty"/><use id="empty_14_12" x="300" y="260" xlink:href="#empty"/><use id="empty_15_12" x="320" y="260" xlink:href="#empty"/><use id="empty_16_12" x="340" y="260" xlink:href="#empty"/><use id="empty_19_12" x="400" y="260" xlink:href="#empty"/><use id="empty_23_12" x="480" y="260" xlink:href="#empty"/><use id="empty_24_12" x="500" y="260" xlink:href="#empty"/><use id="empty_3_13" x="80" y="280" xlink:href="#empty"/><use id="empty_4_13" x="100" y="280" xlink:href="#empty"/><use id="table_5_13" x="120" y="280" xlink:href="#table" rotate="90" transform="rotate(90,130,290)"/><use id="empty_6_13" x="140" y="280" xlink:href="#empty"/><use id="empty_7_13" x="160" y="280" xlink:href="#empty"/><use id="empty_9_13" x="200" y="280" xlink:href="#empty"/><use id="empty_10_13" x="220" y="280" xlink:href="#empty"/><use id="empty_11_13" x="240" y="280" xlink:href="#empty"/><use id="empty_13_13" x="280" y="280" xlink:href="#empty"/><use id="empty_14_13" x="300" y="280" xlink:href="#empty"/><use id="empty_15_13" x="320" y="280" xlink:href="#empty"/><use id="empty_16_13" x="340" y="280" xlink:href="#empty"/><use id="empty_17_13" x="360" y="280" xlink:href="#empty"/><use id="empty_18_13" x="380" y="280" xlink:href="#empty"/><use id="empty_19_13" x="400" y="280" xlink:href="#empty"/><use id="empty_20_13" x="420" y="280" xlink:href="#empty"/><use id="empty_21_13" x="440" y="280" xlink:href="#empty"/><use id="empty_22_13" x="460" y="280" xlink:href="#empty"/><use id="empty_23_13" x="480" y="280" xlink:href="#empty"/><use id="empty_24_13" x="500" y="280" xlink:href="#empty"/><use id="empty_25_13" x="520" y="280" xlink:href="#empty"/><use id="empty_26_13" x="540" y="280" xlink:href="#empty"/><use id="empty_27_13" x="560" y="280" xlink:href="#empty"/><use id="empty_28_13" x="580" y="280" xlink:href="#empty"/><use id="empty_1_14" x="40" y="300" xlink:href="#empty"/><use id="empty_2_14" x="60" y="300" xlink:href="#empty"/><use id="empty_3_14" x="80" y="300" xlink:href="#empty"/><use id="chest_5_14" x="120" y="300" xlink:href="#chest" rotate="0"/><use id="bed_6_14" x="140" y="300" xlink:href="#bed" rotate="0"/><use id="empty_7_14" x="160" y="300" xlink:href="#empty"/><use id="empty_13_14" x="280" y="300" xlink:href="#empty"/><use id="empty_14_14" x="300" y="300" xlink:href="#empty"/><use id="empty_15_14" x="320" y="300" xlink:href="#empty"/><use id="empty_16_14" x="340" y="300" xlink:href="#empty"/><use id="empty_17_14" x="360" y="300" xlink:href="#empty"/><use id="empty_18_14" x="380" y="300" xlink:href="#empty"/><use id="empty_19_14" x="400" y="300" xlink:href="#empty"/><use id="empty_20_14" x="420" y="300" xlink:href="#empty"/><use id="empty_21_14" x="440" y="300" xlink:href="#empty"/><use id="empty_22_14" x="460" y="300" xlink:href="#empty"/><use id="empty_23_14" x="480" y="300" xlink:href="#empty"/><use id="empty_24_14" x="500" y="300" xlink:href="#empty"/><use id="empty_25_14" x="520" y="300" xlink:href="#empty"/><use id="empty_26_14" x="540" y="300" xlink:href="#empty"/><use id="empty_27_14" x="560" y="300" xlink:href="#empty"/><use id="empty_28_14" x="580" y="300" xlink:href="#empty"/><use id="empty_1_15" x="40" y="320" xlink:href="#empty"/><use id="empty_2_15" x="60" y="320" xlink:href="#empty"/><use id="empty_3_15" x="80" y="320" xlink:href="#empty"/><use id="empty_7_15" x="160" y="320" xlink:href="#empty"/><use id="empty_13_15" x="280" y="320" xlink:href="#empty"/><use id="empty_14_15" x="300" y="320" xlink:href="#empty"/><use id="empty_15_15" x="320" y="320" xlink:href="#empty"/><use id="empty_16_15" x="340" y="320" xlink:href="#empty"/><use id="empty_19_15" x="400" y="320" xlink:href="#empty" class="colorA"/><use id="empty_23_15" x="480" y="320" xlink:href="#empty"/><use id="empty_24_15" x="500" y="320" xlink:href="#empty"/><use id="empty_1_16" x="40" y="340" xlink:href="#empty"/><use id="empty_3_16" x="80" y="340" xlink:href="#empty"/><use id="empty_7_16" x="160" y="340" xlink:href="#empty"/><use id="empty_8_16" x="180" y="340" xlink:href="#empty"/><use id="empty_9_16" x="200" y="340" xlink:href="#empty" class="colorA"/><use id="empty_10_16" x="220" y="340" xlink:href="#empty" class="colorA"/><use id="empty_13_16" x="280" y="340" xlink:href="#empty" class="colorA"/><use id="empty_19_16" x="400" y="340" xlink:href="#empty" class="colorA"/><use id="empty_23_16" x="480" y="340" xlink:href="#empty"/><use id="empty_24_16" x="500" y="340" xlink:href="#empty"/><use id="stair_1_17" x="40" y="360" xlink:href="#stair" rotate="0"/><use id="empty_3_17" x="80" y="360" xlink:href="#empty"/><use id="empty_4_17" x="100" y="360" xlink:href="#empty"/><use id="statue_9_17" x="200" y="360" xlink:href="#statue" class="colorA"/><use id="empty_10_17" x="220" y="360" xlink:href="#empty" class="colorA"/><use id="empty_11_17" x="240" y="360" xlink:href="#empty" class="colorA"/><use id="empty_12_17" x="260" y="360" xlink:href="#empty" class="colorA"/><use id="empty_13_17" x="280" y="360" xlink:href="#empty" class="colorA"/><use id="empty_14_17" x="300" y="360" xlink:href="#empty" class="colorA"/><use id="empty_15_17" x="320" y="360" xlink:href="#empty" class="colorA"/><use id="empty_16_17" x="340" y="360" xlink:href="#empty" class="colorA"/><use id="empty_17_17" x="360" y="360" xlink:href="#empty" class="colorA"/><use id="empty_18_17" x="380" y="360" xlink:href="#empty" class="colorA"/><use id="empty_19_17" x="400" y="360" xlink:href="#empty" class="colorA"/><use id="stair_20_17" x="420" y="360" xlink:href="#stair" rotate="270" transform="rotate(270,430,370)" class="colorA"/><use id="empty_24_17" x="500" y="360" xlink:href="#empty"/><use id="table_3_18" x="80" y="380" xlink:href="#table" rotate="0"/><use id="bed_4_18" x="100" y="380" xlink:href="#bed" rotate="0"/><use id="empty_7_18" x="160" y="380" xlink:href="#empty" class="colorA"/><use id="empty_8_18" x="180" y="380" xlink:href="#empty" class="colorA"/><use id="empty_9_18" x="200" y="380" xlink:href="#empty" class="colorA"/><use id="empty_10_18" x="220" y="380" xlink:href="#empty" class="colorA"/><use id="empty_19_18" x="400" y="380" xlink:href="#empty" class="colorA"/><use id="empty_24_18" x="500" y="380" xlink:href="#empty"/><use id="empty_7_19" x="160" y="400" xlink:href="#empty" class="colorA"/><use id="empty_19_19" x="400" y="400" xlink:href="#empty" class="colorA"/><use id="empty_24_19" x="500" y="400" xlink:href="#empty"/><use id="empty_25_19" x="520" y="400" xlink:href="#empty"/><use id="empty_26_19" x="540" y="400" xlink:href="#empty"/><use id="empty_5_20" x="120" y="420" xlink:href="#empty" class="colorA"/><use id="empty_6_20" x="140" y="420" xlink:href="#empty" class="colorA"/><use id="empty_7_20" x="160" y="420" xlink:href="#empty" class="colorA"/><use id="empty_17_20" x="360" y="420" xlink:href="#empty"/><use id="pillar_18_20" x="380" y="420" xlink:href="#pillar"/><use id="empty_19_20" x="400" y="420" xlink:href="#empty"/><use id="pillar_20_20" x="420" y="420" xlink:href="#pillar"/><use id="empty_21_20" x="440" y="420" xlink:href="#empty"/><use id="empty_25_20" x="520" y="420" xlink:href="#empty"/><use id="empty_26_20" x="540" y="420" xlink:href="#empty"/><use id="empty_1_21" x="40" y="440" xlink:href="#empty"/><use id="empty_2_21" x="60" y="440" xlink:href="#empty"/><use id="empty_3_21" x="80" y="440" xlink:href="#empty"/><use id="empty_4_21" x="100" y="440" xlink:href="#empty"/><use id="empty_5_21" x="120" y="440" xlink:href="#empty" class="colorA"/><use id="empty_6_21" x="140" y="440" xlink:href="#empty" class="colorA"/><use id="empty_7_21" x="160" y="440" xlink:href="#empty" class="colorA"/><use id="empty_9_21" x="200" y="440" xlink:href="#empty"/><use id="empty_10_21" x="220" y="440" xlink:href="#empty"/><use id="empty_11_21" x="240" y="440" xlink:href="#empty"/><use id="empty_14_21" x="300" y="440" xlink:href="#empty"/><use id="empty_15_21" x="320" y="440" xlink:href="#empty"/><use id="pillar_17_21" x="360" y="440" xlink:href="#pillar"/><use id="empty_18_21" x="380" y="440" xlink:href="#empty"/><use id="empty_19_21" x="400" y="440" xlink:href="#empty"/><use id="empty_20_21" x="420" y="440" xlink:href="#empty"/><use id="pillar_21_21" x="440" y="440" xlink:href="#pillar"/><use id="empty_25_21" x="520" y="440" xlink:href="#empty"/><use id="empty_1_22" x="40" y="460" xlink:href="#empty"/><use id="empty_2_22" x="60" y="460" xlink:href="#empty"/><use id="empty_3_22" x="80" y="460" xlink:href="#empty"/><use id="empty_7_22" x="160" y="460" xlink:href="#empty" class="colorA"/><use id="empty_9_22" x="200" y="460" xlink:href="#empty"/><use id="dais-round_10_22" x="220" y="460" xlink:href="#dais-round"/><use id="empty_11_22" x="240" y="460" xlink:href="#empty"/><use id="empty_12_22" x="260" y="460" xlink:href="#empty"/><use id="empty_13_22" x="280" y="460" xlink:href="#empty"/><use id="empty_14_22" x="300" y="460" xlink:href="#empty"/><use id="empty_15_22" x="320" y="460" xlink:href="#empty"/><use id="empty_16_22" x="340" y="460" xlink:href="#empty"/><use id="empty_17_22" x="360" y="460" xlink:href="#empty"/><use id="empty_18_22" x="380" y="460" xlink:href="#empty"/><use id="fountain_19_22" x="400" y="460" xlink:href="#fountain"/><use id="empty_20_22" x="420" y="460" xlink:href="#empty"/><use id="empty_21_22" x="440" y="460" xlink:href="#empty"/><use id="empty_22_22" x="460" y="460" xlink:href="#empty"/><use id="empty_23_22" x="480" y="460" xlink:href="#empty"/><use id="empty_24_22" x="500" y="460" xlink:href="#empty"/><use id="empty_25_22" x="520" y="460" xlink:href="#empty"/><use id="empty_3_23" x="80" y="480" xlink:href="#empty"/><use id="empty_7_23" x="160" y="480" xlink:href="#empty" class="colorA"/><use id="empty_9_23" x="200" y="480" xlink:href="#empty"/><use id="empty_10_23" x="220" y="480" xlink:href="#empty"/><use id="empty_11_23" x="240" y="480" xlink:href="#empty"/><use id="empty_14_23" x="300" y="480" xlink:href="#empty"/><use id="empty_15_23" x="320" y="480" xlink:href="#empty"/><use id="pillar_17_23" x="360" y="480" xlink:href="#pillar"/><use id="empty_18_23" x="380" y="480" xlink:href="#empty"/><use id="empty_19_23" x="400" y="480" xlink:href="#empty"/><use id="empty_20_23" x="420" y="480" xlink:href="#empty"/><use id="pillar_21_23" x="440" y="480" xlink:href="#pillar"/><use id="empty_25_23" x="520" y="480" xlink:href="#empty"/><use id="pillar_2_24" x="60" y="500" xlink:href="#pillar"/><use id="empty_3_24" x="80" y="500" xlink:href="#empty"/><use id="pillar_4_24" x="100" y="500" xlink:href="#pillar"/><use id="empty_7_24" x="160" y="500" xlink:href="#empty" class="colorA"/><use id="empty_15_24" x="320" y="500" xlink:href="#empty" class="colorA"/><use id="empty_17_24" x="360" y="500" xlink:href="#empty"/><use id="pillar_18_24" x="380" y="500" xlink:href="#pillar"/><use id="empty_19_24" x="400" y="500" xlink:href="#empty"/><use id="pillar_20_24" x="420" y="500" xlink:href="#pillar"/><use id="empty_21_24" x="440" y="500" xlink:href="#empty"/><use id="empty_25_24" x="520" y="500" xlink:href="#empty"/><use id="empty_26_24" x="540" y="500" xlink:href="#empty"/><use id="empty_27_24" x="560" y="500" xlink:href="#empty"/><use id="pillar_2_25" x="60" y="520" xlink:href="#pillar"/><use id="empty_3_25" x="80" y="520" xlink:href="#empty"/><use id="pillar_4_25" x="100" y="520" xlink:href="#pillar"/><use id="empty_6_25" x="140" y="520" xlink:href="#empty" class="colorA"/><use id="empty_7_25" x="160" y="520" xlink:href="#empty" class="colorA"/><use id="empty_8_25" x="180" y="520" xlink:href="#empty" class="colorA"/><use id="empty_15_25" x="320" y="520" xlink:href="#empty" class="colorA"/><use id="empty_19_25" x="400" y="520" xlink:href="#empty" class="colorA"/><use id="stair_23_25" x="480" y="520" xlink:href="#stair" rotate="180" transform="rotate(180,490,530)" class="colorA"/><use id="empty_25_25" x="520" y="520" xlink:href="#empty"/><use id="stair-spiral_26_25" x="540" y="520" xlink:href="#stair-spiral" rotate="0"/><use id="empty_27_25" x="560" y="520" xlink:href="#empty"/><use id="pillar_2_26" x="60" y="540" xlink:href="#pillar"/><use id="table_3_26" x="80" y="540" xlink:href="#table" rotate="0"/><use id="pillar_4_26" x="100" y="540" xlink:href="#pillar"/><use id="empty_6_26" x="140" y="540" xlink:href="#empty" class="colorA"/><use id="empty_7_26" x="160" y="540" xlink:href="#empty" class="colorA"/><use id="empty_8_26" x="180" y="540" xlink:href="#empty" class="colorA"/><use id="empty_11_26" x="240" y="540" xlink:href="#empty" class="colorA"/><use id="empty_12_26" x="260" y="540" xlink:href="#empty" class="colorA"/><use id="empty_14_26" x="300" y="540" xlink:href="#empty" class="colorA"/><use id="empty_15_26" x="320" y="540" xlink:href="#empty" class="colorA"/><use id="empty_16_26" x="340" y="540" xlink:href="#empty" class="colorA"/><use id="empty_18_26" x="380" y="540" xlink:href="#empty" class="colorA"/><use id="empty_19_26" x="400" y="540" xlink:href="#empty" class="colorA"/><use id="empty_20_26" x="420" y="540" xlink:href="#empty" class="colorA"/><use id="empty_22_26" x="460" y="540" xlink:href="#empty" class="colorA"/><use id="empty_23_26" x="480" y="540" xlink:href="#empty" class="colorA"/><use id="empty_24_26" x="500" y="540" xlink:href="#empty" class="colorA"/><use id="empty_25_26" x="520" y="540" xlink:href="#empty"/><use id="empty_26_26" x="540" y="540" xlink:href="#empty"/><use id="rubble_27_26" x="560" y="540" xlink:href="#rubble"/><use id="pillar_2_27" x="60" y="560" xlink:href="#pillar"/><use id="statue_3_27" x="80" y="560" xlink:href="#statue"/><use id="pillar_4_27" x="100" y="560" xlink:href="#pillar"/><use id="empty_7_27" x="160" y="560" xlink:href="#empty" class="colorA"/><use id="empty_11_27" x="240" y="560" xlink:href="#empty" class="colorA"/><use id="empty_12_27" x="260" y="560" xlink:href="#empty" class="colorA"/><use id="empty_13_27" x="280" y="560" xlink:href="#empty" class="colorA"/><use id="empty_14_27" x="300" y="560" xlink:href="#empty" class="colorA"/><use id="empty_15_27" x="320" y="560" xlink:href="#empty" class="colorA"/><use id="empty_16_27" x="340" y="560" xlink:href="#empty" class="colorA"/><use id="empty_17_27" x="360" y="560" xlink:href="#empty" class="colorA"/><use id="empty_18_27" x="380" y="560" xlink:href="#empty" class="colorA"/><use id="empty_19_27" x="400" y="560" xlink:href="#empty" class="colorA"/><use id="empty_20_27" x="420" y="560" xlink:href="#empty" class="colorA"/><use id="empty_21_27" x="440" y="560" xlink:href="#empty" class="colorA"/><use id="empty_22_27" x="460" y="560" xlink:href="#empty" class="colorA"/><use id="empty_23_27" x="480" y="560" xlink:href="#empty" class="colorA"/><use id="empty_7_28" x="160" y="580" xlink:href="#empty" class="colorA"/><use id="empty_8_28" x="180" y="580" xlink:href="#empty" class="colorA"/><use id="empty_9_28" x="200" y="580" xlink:href="#empty" class="colorA"/><use id="empty_10_28" x="220" y="580" xlink:href="#empty" class="colorA"/><use id="empty_11_28" x="240" y="580" xlink:href="#empty" class="colorA"/><use id="empty_12_28" x="260" y="580" xlink:href="#empty" class="colorA"/></g><g id="labels0"><text id="label_9_2" x="210" y="74">7</text><text id="label_13_2" x="290" y="74">8</text><text id="label_20_2" x="430" y="74">10</text><text id="label_26_2" x="550" y="74">14</text><text id="label_1_3" x="50" y="94">17</text><text id="label_4_3" x="110" y="94">17</text><text id="label_17_5" x="370" y="134">9</text><text id="label_13_6" x="290" y="154">6</text><text id="label_20_7" x="430" y="174">11</text><text id="label_25_7" x="530" y="174">12</text><text id="label_7_9" x="170" y="214">16</text><text id="label_13_9" x="290" y="214">4</text><text id="label_20_10" x="430" y="234">5</text><text id="label_2_11" x="70" y="254">18</text><text id="label_23_11" x="490" y="254">13</text><text id="label_10_12" x="230" y="274">15</text><text id="label_6_13" x="150" y="294">23</text><text id="label_15_13" x="330" y="294">3</text><text id="label_21_13" x="450" y="294">2</text><text id="label_27_13" x="570" y="294">1</text><text id="label_2_14" x="70" y="314">19</text><text id="label_23_16" x="490" y="354">37</text><text id="label_3_17" x="90" y="374">20</text><text id="label_10_17" x="230" y="374">22</text><text id="label_19_17" x="410" y="374">21</text><text id="label_6_20" x="150" y="434">24</text><text id="label_26_20" x="550" y="434">36</text><text id="label_2_21" x="70" y="454">25</text><text id="label_19_21" x="410" y="454">31</text><text id="label_11_22" x="250" y="474">33</text><text id="label_14_22" x="310" y="474">32</text><text id="label_26_24" x="550" y="514">35</text><text id="label_3_25" x="90" y="534">26</text><text id="label_7_25" x="170" y="534">27</text><text id="label_11_27" x="250" y="574">28</text><text id="label_15_27" x="330" y="574">29</text><text id="label_19_27" x="410" y="574">30</text><text id="label_23_27" x="490" y="574">34</text></g><g id="walls0"><use id="door_9_4" x="200" y="100" xlink:href="#door" rotate="90" transform="rotate(90,210,110)"/><use id="door_13_4" x="280" y="100" xlink:href="#door" rotate="90" transform="rotate(90,290,110)"/><use id="door_26_4" x="540" y="100" xlink:href="#door" rotate="90" transform="rotate(90,550,110)"/><use id="door_1_5" x="40" y="120" xlink:href="#door" rotate="90" transform="rotate(90,50,130)"/><use id="door_4_5" x="100" y="120" xlink:href="#door" rotate="90" transform="rotate(90,110,130)"/><use id="door_12_5" x="260" y="120" xlink:href="#door" rotate="0"/><use id="door_15_5" x="320" y="120" xlink:href="#door" rotate="0"/><use id="door_20_6" x="420" y="140" xlink:href="#door" rotate="90" transform="rotate(90,430,150)"/><use id="door_24_7" x="500" y="160" xlink:href="#door" rotate="0"/><use id="arrow-slit_25_8" x="520" y="180" xlink:href="#arrow-slit" rotate="270" transform="rotate(270,530,190)"/><use id="arrow-slit_26_8" x="540" y="180" xlink:href="#arrow-slit" rotate="270" transform="rotate(270,550,190)"/><use id="door_19_9" x="400" y="200" xlink:href="#door" rotate="0"/><use id="door_3_10" x="80" y="220" xlink:href="#door" rotate="90" transform="rotate(90,90,230)"/><use id="door_24_11" x="500" y="240" xlink:href="#door" rotate="90" transform="rotate(90,510,250)"/><use id="door_13_12" x="280" y="260" xlink:href="#door" rotate="90" transform="rotate(90,290,270)"/><use id="arrow-slit_23_12" x="480" y="260" xlink:href="#arrow-slit" rotate="270" transform="rotate(270,490,270)"/><use id="arrow-slit_24_12" x="500" y="260" xlink:href="#arrow-slit" rotate="270" transform="rotate(270,510,270)"/><use id="secret_3_13" x="80" y="280" xlink:href="#secret" rotate="90" transform="rotate(90,90,290)"/><use id="secret_5_13" x="120" y="280" xlink:href="#secret" rotate="0"/><use id="gate_17_13" x="360" y="280" xlink:href="#gate" rotate="0"/><use id="door_19_13" x="400" y="280" xlink:href="#door" rotate="90" transform="rotate(90,410,290)"/><use id="door_19_15" x="400" y="320" xlink:href="#door" rotate="90" transform="rotate(90,410,330)"/><use id="arrow-slit_23_15" x="480" y="320" xlink:href="#arrow-slit" rotate="90" transform="rotate(90,490,330)"/><use id="arrow-slit_24_15" x="500" y="320" xlink:href="#arrow-slit" rotate="90" transform="rotate(90,510,330)"/><use id="door_3_16" x="80" y="340" xlink:href="#door" rotate="90" transform="rotate(90,90,350)"/><use id="door_9_16" x="200" y="340" xlink:href="#door" rotate="0"/><use id="door_13_16" x="280" y="340" xlink:href="#door" rotate="90" transform="rotate(90,290,350)"/><use id="door_24_17" x="500" y="360" xlink:href="#door" rotate="90" transform="rotate(90,510,370)"/><use id="arrow-slit_25_19" x="520" y="400" xlink:href="#arrow-slit" rotate="90" transform="rotate(90,530,410)"/><use id="arrow-slit_26_19" x="540" y="400" xlink:href="#arrow-slit" rotate="90" transform="rotate(90,550,410)"/><use id="door_19_20" x="400" y="420" xlink:href="#door" rotate="90" transform="rotate(90,410,430)"/><use id="door_5_21" x="120" y="440" xlink:href="#door" rotate="0"/><use id="door_25_21" x="520" y="440" xlink:href="#door" rotate="90" transform="rotate(90,530,450)"/><use id="door_17_22" x="360" y="460" xlink:href="#door" rotate="0"/><use id="door_22_22" x="460" y="460" xlink:href="#door" rotate="0"/><use id="door_3_24" x="80" y="500" xlink:href="#door" rotate="90" transform="rotate(90,90,510)"/><use id="door_15_24" x="320" y="500" xlink:href="#door" rotate="90" transform="rotate(90,330,510)"/><use id="arrow-slit_27_24" x="560" y="500" xlink:href="#arrow-slit" rotate="90" transform="rotate(90,570,510)"/><use id="arrow-slit_27_24" x="560" y="500" xlink:href="#arrow-slit" rotate="180" transform="rotate(180,570,510)"/><use id="door_19_25" x="400" y="520" xlink:href="#door" rotate="90" transform="rotate(90,410,530)"/><use id="gap_27_25" x="560" y="520" xlink:href="#gap" rotate="180" transform="rotate(180,570,530)"/><use id="door_24_26" x="500" y="540" xlink:href="#door" rotate="180" transform="rotate(180,510,550)"/></g></g></g></svg>