(20,1)av   aav
                2 wvv.wvvfwwvvfwwvvfdvvvfovv   1
                 wvv.wwwvvfwwwwvvfwwwwvvff
                    aaaav   aaav


                   avv     aavv
                     cvv cvv 3
                     svvv   c
                        cccv
                     cvv cvv
                   aaaavv     aaavv

             fcvvvv   wvvvvvvf7f   ccv ccv ccv ccv
             f10f  wvvvvvvffdffff6fff
             f    ddddf    f
     ffffwwvvfwwvvfwwvvfwwvvffwwvvfwwvvfwwvvfwvvvvvvff fffddf  b
     f12fffffffff9ffdf8f fsvvv  5fff4f
     ffffffffffffwvvvvvvffdff  ffdddvvvffssssvvvv
     ffffwwwwvvfwwwwvvfwwwwvvfwwwwvvffwwwwvvfwwwwvvfwwwwvvfwvvvvvvff ffff  b
             f    ddf    ddf
             f11f  wvvvvvvffdffff13fff
             fcvvvv   wvvvvvvf14f   ccccv ccccv ccccv ccccv
     ff18f ff17f
     b fffdfpvv fdffffffffdff15ffdffffcccv
     fff fff        fsvvv  f  16ffcccv
      ddvf       ss 20f cv c  f  f  cvv fcccv
      fffffffdffffdf19ffdvffffdffffcccv
                 ftvvvv


                 f23ffffffff24ff
                 ff f    fff
                    ddfff21f fff
 fffffffffffffffff22ffdvvvfovvv  f  ddvf
 ffffffffffffffffffff  f  f
                    ffff fff
          ss f27f ss   ftvv  ddvf    f26ff
           ff    f25ffffffffff



 ffffffff
        f
        28f ss(8,45,0)
